%!PS-Adobe-3.0 EPSF-3.0
%%Creator: (MATLAB, The Mathworks, Inc. Version 9.12.0.1956245 \(R2022a\) Update 2. Operating System: Windows 10)
%%Title: ./Bound.eps
%%CreationDate: 2023-09-24T19:23:51
%%Pages: (atend)
%%BoundingBox:     9     3   202   121
%%LanguageLevel: 3
%%EndComments
%%BeginProlog
%%BeginResource: procset (Apache XML Graphics Std ProcSet) 1.2 0
%%Version: 1.2 0
%%Copyright: (Copyright 2001-2003,2010 The Apache Software Foundation. License terms: http://www.apache.org/licenses/LICENSE-2.0)
/bd{bind def}bind def
/ld{load def}bd
/GR/grestore ld
/GS/gsave ld
/RM/rmoveto ld
/C/curveto ld
/t/show ld
/L/lineto ld
/ML/setmiterlimit ld
/CT/concat ld
/f/fill ld
/N/newpath ld
/S/stroke ld
/CC/setcmykcolor ld
/A/ashow ld
/cp/closepath ld
/RC/setrgbcolor ld
/LJ/setlinejoin ld
/GC/setgray ld
/LW/setlinewidth ld
/M/moveto ld
/re {4 2 roll M
1 index 0 rlineto
0 exch rlineto
neg 0 rlineto
cp } bd
/_ctm matrix def
/_tm matrix def
/BT { _ctm currentmatrix pop matrix _tm copy pop 0 0 moveto } bd
/ET { _ctm setmatrix } bd
/iTm { _ctm setmatrix _tm concat } bd
/Tm { _tm astore pop iTm 0 0 moveto } bd
/ux 0.0 def
/uy 0.0 def
/F {
  /Tp exch def
  /Tf exch def
  Tf findfont Tp scalefont setfont
  /cf Tf def  /cs Tp def
} bd
/ULS {currentpoint /uy exch def /ux exch def} bd
/ULE {
  /Tcx currentpoint pop def
  gsave
  newpath
  cf findfont cs scalefont dup
  /FontMatrix get 0 get /Ts exch def /FontInfo get dup
  /UnderlinePosition get Ts mul /To exch def
  /UnderlineThickness get Ts mul /Tt exch def
  ux uy To add moveto  Tcx uy To add lineto
  Tt setlinewidth stroke
  grestore
} bd
/OLE {
  /Tcx currentpoint pop def
  gsave
  newpath
  cf findfont cs scalefont dup
  /FontMatrix get 0 get /Ts exch def /FontInfo get dup
  /UnderlinePosition get Ts mul /To exch def
  /UnderlineThickness get Ts mul /Tt exch def
  ux uy To add cs add moveto Tcx uy To add cs add lineto
  Tt setlinewidth stroke
  grestore
} bd
/SOE {
  /Tcx currentpoint pop def
  gsave
  newpath
  cf findfont cs scalefont dup
  /FontMatrix get 0 get /Ts exch def /FontInfo get dup
  /UnderlinePosition get Ts mul /To exch def
  /UnderlineThickness get Ts mul /Tt exch def
  ux uy To add cs 10 mul 26 idiv add moveto Tcx uy To add cs 10 mul 26 idiv add lineto
  Tt setlinewidth stroke
  grestore
} bd
/QT {
/Y22 exch store
/X22 exch store
/Y21 exch store
/X21 exch store
currentpoint
/Y21 load 2 mul add 3 div exch
/X21 load 2 mul add 3 div exch
/X21 load 2 mul /X22 load add 3 div
/Y21 load 2 mul /Y22 load add 3 div
/X22 load /Y22 load curveto
} bd
/SSPD {
dup length /d exch dict def
{
/v exch def
/k exch def
currentpagedevice k known {
/cpdv currentpagedevice k get def
v cpdv ne {
/upd false def
/nullv v type /nulltype eq def
/nullcpdv cpdv type /nulltype eq def
nullv nullcpdv or
{
/upd true def
} {
/sametype v type cpdv type eq def
sametype {
v type /arraytype eq {
/vlen v length def
/cpdvlen cpdv length def
vlen cpdvlen eq {
0 1 vlen 1 sub {
/i exch def
/obj v i get def
/cpdobj cpdv i get def
obj cpdobj ne {
/upd true def
exit
} if
} for
} {
/upd true def
} ifelse
} {
v type /dicttype eq {
v {
/dv exch def
/dk exch def
/cpddv cpdv dk get def
dv cpddv ne {
/upd true def
exit
} if
} forall
} {
/upd true def
} ifelse
} ifelse
} if
} ifelse
upd true eq {
d k v put
} if
} if
} if
} forall
d length 0 gt {
d setpagedevice
} if
} bd
/RE { % /NewFontName [NewEncodingArray] /FontName RE -
  findfont dup length dict begin
  {
    1 index /FID ne
    {def} {pop pop} ifelse
  } forall
  /Encoding exch def
  /FontName 1 index def
  currentdict definefont pop
  end
} bind def
%%EndResource
%%BeginResource: procset (Apache XML Graphics EPS ProcSet) 1.0 0
%%Version: 1.0 0
%%Copyright: (Copyright 2002-2003 The Apache Software Foundation. License terms: http://www.apache.org/licenses/LICENSE-2.0)
/BeginEPSF { %def
/b4_Inc_state save def         % Save state for cleanup
/dict_count countdictstack def % Count objects on dict stack
/op_count count 1 sub def      % Count objects on operand stack
userdict begin                 % Push userdict on dict stack
/showpage { } def              % Redefine showpage, { } = null proc
0 setgray 0 setlinecap         % Prepare graphics state
1 setlinewidth 0 setlinejoin
10 setmiterlimit [ ] 0 setdash newpath
/languagelevel where           % If level not equal to 1 then
{pop languagelevel             % set strokeadjust and
1 ne                           % overprint to their defaults.
{false setstrokeadjust false setoverprint
} if
} if
} bd
/EndEPSF { %def
count op_count sub {pop} repeat            % Clean up stacks
countdictstack dict_count sub {end} repeat
b4_Inc_state restore
} bd
%%EndResource
%FOPBeginFontDict
%%IncludeResource: font Courier-Oblique
%%IncludeResource: font Courier-BoldOblique
%%IncludeResource: font Courier-Bold
%%IncludeResource: font ZapfDingbats
%%IncludeResource: font Symbol
%%IncludeResource: font Helvetica
%%IncludeResource: font Helvetica-Oblique
%%IncludeResource: font Helvetica-Bold
%%IncludeResource: font Helvetica-BoldOblique
%%IncludeResource: font Times-Roman
%%IncludeResource: font Times-Italic
%%IncludeResource: font Times-Bold
%%IncludeResource: font Times-BoldItalic
%%IncludeResource: font Courier
%FOPEndFontDict
%%BeginResource: encoding WinAnsiEncoding
/WinAnsiEncoding [
/.notdef /.notdef /.notdef /.notdef /.notdef
/.notdef /.notdef /.notdef /.notdef /.notdef
/.notdef /.notdef /.notdef /.notdef /.notdef
/.notdef /.notdef /.notdef /.notdef /.notdef
/.notdef /.notdef /.notdef /.notdef /.notdef
/.notdef /.notdef /.notdef /.notdef /.notdef
/.notdef /.notdef /space /exclam /quotedbl
/numbersign /dollar /percent /ampersand /quotesingle
/parenleft /parenright /asterisk /plus /comma
/hyphen /period /slash /zero /one
/two /three /four /five /six
/seven /eight /nine /colon /semicolon
/less /equal /greater /question /at
/A /B /C /D /E
/F /G /H /I /J
/K /L /M /N /O
/P /Q /R /S /T
/U /V /W /X /Y
/Z /bracketleft /backslash /bracketright /asciicircum
/underscore /quoteleft /a /b /c
/d /e /f /g /h
/i /j /k /l /m
/n /o /p /q /r
/s /t /u /v /w
/x /y /z /braceleft /bar
/braceright /asciitilde /bullet /Euro /bullet
/quotesinglbase /florin /quotedblbase /ellipsis /dagger
/daggerdbl /circumflex /perthousand /Scaron /guilsinglleft
/OE /bullet /Zcaron /bullet /bullet
/quoteleft /quoteright /quotedblleft /quotedblright /bullet
/endash /emdash /asciitilde /trademark /scaron
/guilsinglright /oe /bullet /zcaron /Ydieresis
/space /exclamdown /cent /sterling /currency
/yen /brokenbar /section /dieresis /copyright
/ordfeminine /guillemotleft /logicalnot /sfthyphen /registered
/macron /degree /plusminus /twosuperior /threesuperior
/acute /mu /paragraph /middot /cedilla
/onesuperior /ordmasculine /guillemotright /onequarter /onehalf
/threequarters /questiondown /Agrave /Aacute /Acircumflex
/Atilde /Adieresis /Aring /AE /Ccedilla
/Egrave /Eacute /Ecircumflex /Edieresis /Igrave
/Iacute /Icircumflex /Idieresis /Eth /Ntilde
/Ograve /Oacute /Ocircumflex /Otilde /Odieresis
/multiply /Oslash /Ugrave /Uacute /Ucircumflex
/Udieresis /Yacute /Thorn /germandbls /agrave
/aacute /acircumflex /atilde /adieresis /aring
/ae /ccedilla /egrave /eacute /ecircumflex
/edieresis /igrave /iacute /icircumflex /idieresis
/eth /ntilde /ograve /oacute /ocircumflex
/otilde /odieresis /divide /oslash /ugrave
/uacute /ucircumflex /udieresis /yacute /thorn
/ydieresis
] def
%%EndResource
%FOPBeginFontReencode
/Courier-Oblique findfont
dup length dict begin
  {1 index /FID ne {def} {pop pop} ifelse} forall
  /Encoding WinAnsiEncoding def
  currentdict
end
/Courier-Oblique exch definefont pop
/Courier-BoldOblique findfont
dup length dict begin
  {1 index /FID ne {def} {pop pop} ifelse} forall
  /Encoding WinAnsiEncoding def
  currentdict
end
/Courier-BoldOblique exch definefont pop
/Courier-Bold findfont
dup length dict begin
  {1 index /FID ne {def} {pop pop} ifelse} forall
  /Encoding WinAnsiEncoding def
  currentdict
end
/Courier-Bold exch definefont pop
/Helvetica findfont
dup length dict begin
  {1 index /FID ne {def} {pop pop} ifelse} forall
  /Encoding WinAnsiEncoding def
  currentdict
end
/Helvetica exch definefont pop
/Helvetica-Oblique findfont
dup length dict begin
  {1 index /FID ne {def} {pop pop} ifelse} forall
  /Encoding WinAnsiEncoding def
  currentdict
end
/Helvetica-Oblique exch definefont pop
/Helvetica-Bold findfont
dup length dict begin
  {1 index /FID ne {def} {pop pop} ifelse} forall
  /Encoding WinAnsiEncoding def
  currentdict
end
/Helvetica-Bold exch definefont pop
/Helvetica-BoldOblique findfont
dup length dict begin
  {1 index /FID ne {def} {pop pop} ifelse} forall
  /Encoding WinAnsiEncoding def
  currentdict
end
/Helvetica-BoldOblique exch definefont pop
/Times-Roman findfont
dup length dict begin
  {1 index /FID ne {def} {pop pop} ifelse} forall
  /Encoding WinAnsiEncoding def
  currentdict
end
/Times-Roman exch definefont pop
/Times-Italic findfont
dup length dict begin
  {1 index /FID ne {def} {pop pop} ifelse} forall
  /Encoding WinAnsiEncoding def
  currentdict
end
/Times-Italic exch definefont pop
/Times-Bold findfont
dup length dict begin
  {1 index /FID ne {def} {pop pop} ifelse} forall
  /Encoding WinAnsiEncoding def
  currentdict
end
/Times-Bold exch definefont pop
/Times-BoldItalic findfont
dup length dict begin
  {1 index /FID ne {def} {pop pop} ifelse} forall
  /Encoding WinAnsiEncoding def
  currentdict
end
/Times-BoldItalic exch definefont pop
/Courier findfont
dup length dict begin
  {1 index /FID ne {def} {pop pop} ifelse} forall
  /Encoding WinAnsiEncoding def
  currentdict
end
/Courier exch definefont pop
%FOPEndFontReencode
%%EndProlog
%%Page: 1 1
%%PageBoundingBox: 0 0 216 130
%%BeginPageSetup
N
    9     3 M
  211     3 L
  211   124 L
    9   124 L
cp
clip
[1 0 0 -1 0 130] CT
%%EndPageSetup
GS
[0.75 0 0 0.75 0 0.25] CT
1 GC
N
0 0 288 173 re
f
GR
GS
[0.75 0 0 0.75 0 0.25] CT
1 GC
N
37 137 M
261 137 L
261 13 L
37 13 L
cp
f
GR
GS
[0.75 0 0 0.75 0 0.25] CT
0.775 GC
[1 3] 0 setdash
2 LJ
0.667 LW
N
50.486 137 M
50.486 13 L
S
GR
GS
[0.75 0 0 0.75 0 0.25] CT
0.775 GC
[1 3] 0 setdash
2 LJ
0.667 LW
N
58.375 137 M
58.375 13 L
S
GR
GS
[0.75 0 0 0.75 0 0.25] CT
0.775 GC
[1 3] 0 setdash
2 LJ
0.667 LW
N
63.972 137 M
63.972 13 L
S
GR
GS
[0.75 0 0 0.75 0 0.25] CT
0.775 GC
[1 3] 0 setdash
2 LJ
0.667 LW
N
68.314 137 M
68.314 13 L
S
GR
GS
[0.75 0 0 0.75 0 0.25] CT
0.775 GC
[1 3] 0 setdash
2 LJ
0.667 LW
N
71.861 137 M
71.861 13 L
S
GR
GS
[0.75 0 0 0.75 0 0.25] CT
0.775 GC
[1 3] 0 setdash
2 LJ
0.667 LW
N
74.86 137 M
74.86 13 L
S
GR
GS
[0.75 0 0 0.75 0 0.25] CT
0.775 GC
[1 3] 0 setdash
2 LJ
0.667 LW
N
77.458 137 M
77.458 13 L
S
GR
GS
[0.75 0 0 0.75 0 0.25] CT
0.775 GC
[1 3] 0 setdash
2 LJ
0.667 LW
N
79.75 137 M
79.75 13 L
S
GR
GS
[0.75 0 0 0.75 0 0.25] CT
0.775 GC
[1 3] 0 setdash
2 LJ
0.667 LW
N
95.286 137 M
95.286 13 L
S
GR
GS
[0.75 0 0 0.75 0 0.25] CT
0.775 GC
[1 3] 0 setdash
2 LJ
0.667 LW
N
103.175 137 M
103.175 13 L
S
GR
GS
[0.75 0 0 0.75 0 0.25] CT
0.775 GC
[1 3] 0 setdash
2 LJ
0.667 LW
N
108.772 137 M
108.772 13 L
S
GR
GS
[0.75 0 0 0.75 0 0.25] CT
0.775 GC
[1 3] 0 setdash
2 LJ
0.667 LW
N
113.114 137 M
113.114 13 L
S
GR
GS
[0.75 0 0 0.75 0 0.25] CT
0.775 GC
[1 3] 0 setdash
2 LJ
0.667 LW
N
116.661 137 M
116.661 13 L
S
GR
GS
[0.75 0 0 0.75 0 0.25] CT
0.775 GC
[1 3] 0 setdash
2 LJ
0.667 LW
N
119.66 137 M
119.66 13 L
S
GR
GS
[0.75 0 0 0.75 0 0.25] CT
0.775 GC
[1 3] 0 setdash
2 LJ
0.667 LW
N
122.258 137 M
122.258 13 L
S
GR
GS
[0.75 0 0 0.75 0 0.25] CT
0.775 GC
[1 3] 0 setdash
2 LJ
0.667 LW
N
124.55 137 M
124.55 13 L
S
GR
GS
[0.75 0 0 0.75 0 0.25] CT
0.775 GC
[1 3] 0 setdash
2 LJ
0.667 LW
N
140.086 137 M
140.086 13 L
S
GR
GS
[0.75 0 0 0.75 0 0.25] CT
0.775 GC
[1 3] 0 setdash
2 LJ
0.667 LW
N
147.975 137 M
147.975 13 L
S
GR
GS
[0.75 0 0 0.75 0 0.25] CT
0.775 GC
[1 3] 0 setdash
2 LJ
0.667 LW
N
153.572 137 M
153.572 13 L
S
GR
GS
[0.75 0 0 0.75 0 0.25] CT
0.775 GC
[1 3] 0 setdash
2 LJ
0.667 LW
N
157.914 137 M
157.914 13 L
S
GR
GS
[0.75 0 0 0.75 0 0.25] CT
0.775 GC
[1 3] 0 setdash
2 LJ
0.667 LW
N
161.461 137 M
161.461 13 L
S
GR
GS
[0.75 0 0 0.75 0 0.25] CT
0.775 GC
[1 3] 0 setdash
2 LJ
0.667 LW
N
164.46 137 M
164.46 13 L
S
GR
GS
[0.75 0 0 0.75 0 0.25] CT
0.775 GC
[1 3] 0 setdash
2 LJ
0.667 LW
N
167.058 137 M
167.058 13 L
S
GR
GS
[0.75 0 0 0.75 0 0.25] CT
0.775 GC
[1 3] 0 setdash
2 LJ
0.667 LW
N
169.35 137 M
169.35 13 L
S
GR
GS
[0.75 0 0 0.75 0 0.25] CT
0.775 GC
[1 3] 0 setdash
2 LJ
0.667 LW
N
184.886 137 M
184.886 13 L
S
GR
GS
[0.75 0 0 0.75 0 0.25] CT
0.775 GC
[1 3] 0 setdash
2 LJ
0.667 LW
N
192.775 137 M
192.775 13 L
S
GR
GS
[0.75 0 0 0.75 0 0.25] CT
0.775 GC
[1 3] 0 setdash
2 LJ
0.667 LW
N
198.372 137 M
198.372 13 L
S
GR
GS
[0.75 0 0 0.75 0 0.25] CT
0.775 GC
[1 3] 0 setdash
2 LJ
0.667 LW
N
202.714 137 M
202.714 13 L
S
GR
GS
[0.75 0 0 0.75 0 0.25] CT
0.775 GC
[1 3] 0 setdash
2 LJ
0.667 LW
N
206.261 137 M
206.261 13 L
S
GR
GS
[0.75 0 0 0.75 0 0.25] CT
0.775 GC
[1 3] 0 setdash
2 LJ
0.667 LW
N
209.26 137 M
209.26 13 L
S
GR
GS
[0.75 0 0 0.75 0 0.25] CT
0.775 GC
[1 3] 0 setdash
2 LJ
0.667 LW
N
211.858 137 M
211.858 13 L
S
GR
GS
[0.75 0 0 0.75 0 0.25] CT
0.775 GC
[1 3] 0 setdash
2 LJ
0.667 LW
N
214.15 137 M
214.15 13 L
S
GR
GS
[0.75 0 0 0.75 0 0.25] CT
0.775 GC
[1 3] 0 setdash
2 LJ
0.667 LW
N
229.686 137 M
229.686 13 L
S
GR
GS
[0.75 0 0 0.75 0 0.25] CT
0.775 GC
[1 3] 0 setdash
2 LJ
0.667 LW
N
237.575 137 M
237.575 13 L
S
GR
GS
[0.75 0 0 0.75 0 0.25] CT
0.775 GC
[1 3] 0 setdash
2 LJ
0.667 LW
N
243.172 137 M
243.172 13 L
S
GR
GS
[0.75 0 0 0.75 0 0.25] CT
0.775 GC
[1 3] 0 setdash
2 LJ
0.667 LW
N
247.514 137 M
247.514 13 L
S
GR
GS
[0.75 0 0 0.75 0 0.25] CT
0.775 GC
[1 3] 0 setdash
2 LJ
0.667 LW
N
251.061 137 M
251.061 13 L
S
GR
GS
[0.75 0 0 0.75 0 0.25] CT
0.775 GC
[1 3] 0 setdash
2 LJ
0.667 LW
N
254.06 137 M
254.06 13 L
S
GR
GS
[0.75 0 0 0.75 0 0.25] CT
0.775 GC
[1 3] 0 setdash
2 LJ
0.667 LW
N
256.658 137 M
256.658 13 L
S
GR
GS
[0.75 0 0 0.75 0 0.25] CT
0.775 GC
[1 3] 0 setdash
2 LJ
0.667 LW
N
258.95 137 M
258.95 13 L
S
GR
GS
[0.75 0 0 0.75 0 0.25] CT
0.873 GC
1 LJ
0.667 LW
N
37 137 M
37 13 L
S
GR
GS
[0.75 0 0 0.75 0 0.25] CT
0.873 GC
1 LJ
0.667 LW
N
81.8 137 M
81.8 13 L
S
GR
GS
[0.75 0 0 0.75 0 0.25] CT
0.873 GC
1 LJ
0.667 LW
N
126.6 137 M
126.6 13 L
S
GR
GS
[0.75 0 0 0.75 0 0.25] CT
0.873 GC
1 LJ
0.667 LW
N
171.4 137 M
171.4 13 L
S
GR
GS
[0.75 0 0 0.75 0 0.25] CT
0.873 GC
1 LJ
0.667 LW
N
216.2 137 M
216.2 13 L
S
GR
GS
[0.75 0 0 0.75 0 0.25] CT
0.873 GC
1 LJ
0.667 LW
N
261 137 M
261 13 L
S
GR
GS
[0.75 0 0 0.75 0 0.25] CT
0.775 GC
[1 3] 0 setdash
2 LJ
0.667 LW
N
261 136.714 M
37 136.714 L
S
GR
GS
[0.75 0 0 0.75 0 0.25] CT
0.775 GC
[1 3] 0 setdash
2 LJ
0.667 LW
N
261 134.221 M
37 134.221 L
S
GR
GS
[0.75 0 0 0.75 0 0.25] CT
0.775 GC
[1 3] 0 setdash
2 LJ
0.667 LW
N
261 117.323 M
37 117.323 L
S
GR
GS
[0.75 0 0 0.75 0 0.25] CT
0.775 GC
[1 3] 0 setdash
2 LJ
0.667 LW
N
261 108.742 M
37 108.742 L
S
GR
GS
[0.75 0 0 0.75 0 0.25] CT
0.775 GC
[1 3] 0 setdash
2 LJ
0.667 LW
N
261 102.653 M
37 102.653 L
S
GR
GS
[0.75 0 0 0.75 0 0.25] CT
0.775 GC
[1 3] 0 setdash
2 LJ
0.667 LW
N
261 97.931 M
37 97.931 L
S
GR
GS
[0.75 0 0 0.75 0 0.25] CT
0.775 GC
[1 3] 0 setdash
2 LJ
0.667 LW
N
261 94.073 M
37 94.073 L
S
GR
GS
[0.75 0 0 0.75 0 0.25] CT
0.775 GC
[1 3] 0 setdash
2 LJ
0.667 LW
N
261 90.81 M
37 90.81 L
S
GR
GS
[0.75 0 0 0.75 0 0.25] CT
0.775 GC
[1 3] 0 setdash
2 LJ
0.667 LW
N
261 87.984 M
37 87.984 L
S
GR
GS
[0.75 0 0 0.75 0 0.25] CT
0.775 GC
[1 3] 0 setdash
2 LJ
0.667 LW
N
261 85.492 M
37 85.492 L
S
GR
GS
[0.75 0 0 0.75 0 0.25] CT
0.775 GC
[1 3] 0 setdash
2 LJ
0.667 LW
N
261 68.593 M
37 68.593 L
S
GR
GS
[0.75 0 0 0.75 0 0.25] CT
0.775 GC
[1 3] 0 setdash
2 LJ
0.667 LW
N
261 60.012 M
37 60.012 L
S
GR
GS
[0.75 0 0 0.75 0 0.25] CT
0.775 GC
[1 3] 0 setdash
2 LJ
0.667 LW
N
261 53.924 M
37 53.924 L
S
GR
GS
[0.75 0 0 0.75 0 0.25] CT
0.775 GC
[1 3] 0 setdash
2 LJ
0.667 LW
N
261 49.201 M
37 49.201 L
S
GR
GS
[0.75 0 0 0.75 0 0.25] CT
0.775 GC
[1 3] 0 setdash
2 LJ
0.667 LW
N
261 45.343 M
37 45.343 L
S
GR
GS
[0.75 0 0 0.75 0 0.25] CT
0.775 GC
[1 3] 0 setdash
2 LJ
0.667 LW
N
261 42.08 M
37 42.08 L
S
GR
GS
[0.75 0 0 0.75 0 0.25] CT
0.775 GC
[1 3] 0 setdash
2 LJ
0.667 LW
N
261 39.254 M
37 39.254 L
S
GR
GS
[0.75 0 0 0.75 0 0.25] CT
0.775 GC
[1 3] 0 setdash
2 LJ
0.667 LW
N
261 36.762 M
37 36.762 L
S
GR
GS
[0.75 0 0 0.75 0 0.25] CT
0.775 GC
[1 3] 0 setdash
2 LJ
0.667 LW
N
261 19.863 M
37 19.863 L
S
GR
GS
[0.75 0 0 0.75 0 0.25] CT
0.873 GC
1 LJ
0.667 LW
N
261 131.992 M
37 131.992 L
S
GR
GS
[0.75 0 0 0.75 0 0.25] CT
0.873 GC
1 LJ
0.667 LW
N
261 83.262 M
37 83.262 L
S
GR
GS
[0.75 0 0 0.75 0 0.25] CT
0.873 GC
1 LJ
0.667 LW
N
261 34.532 M
37 34.532 L
S
GR
GS
[0.75 0 0 0.75 0 0.25] CT
0.149 GC
2 setlinecap
1 LJ
0.667 LW
N
37 137 M
261 137 L
S
GR
GS
[0.75 0 0 0.75 0 0.25] CT
0.149 GC
2 setlinecap
1 LJ
0.667 LW
N
37 13 M
261 13 L
S
GR
GS
[0.75 0 0 0.75 0 0.25] CT
0.149 GC
2 setlinecap
1 LJ
0.667 LW
N
37 137 M
37 134.76 L
S
GR
GS
[0.75 0 0 0.75 0 0.25] CT
0.149 GC
2 setlinecap
1 LJ
0.667 LW
N
81.8 137 M
81.8 134.76 L
S
GR
GS
[0.75 0 0 0.75 0 0.25] CT
0.149 GC
2 setlinecap
1 LJ
0.667 LW
N
126.6 137 M
126.6 134.76 L
S
GR
GS
[0.75 0 0 0.75 0 0.25] CT
0.149 GC
2 setlinecap
1 LJ
0.667 LW
N
171.4 137 M
171.4 134.76 L
S
GR
GS
[0.75 0 0 0.75 0 0.25] CT
0.149 GC
2 setlinecap
1 LJ
0.667 LW
N
216.2 137 M
216.2 134.76 L
S
GR
GS
[0.75 0 0 0.75 0 0.25] CT
0.149 GC
2 setlinecap
1 LJ
0.667 LW
N
261 137 M
261 134.76 L
S
GR
GS
[0.75 0 0 0.75 0 0.25] CT
0.149 GC
2 setlinecap
1 LJ
0.667 LW
N
37 13 M
37 15.24 L
S
GR
GS
[0.75 0 0 0.75 0 0.25] CT
0.149 GC
2 setlinecap
1 LJ
0.667 LW
N
81.8 13 M
81.8 15.24 L
S
GR
GS
[0.75 0 0 0.75 0 0.25] CT
0.149 GC
2 setlinecap
1 LJ
0.667 LW
N
126.6 13 M
126.6 15.24 L
S
GR
GS
[0.75 0 0 0.75 0 0.25] CT
0.149 GC
2 setlinecap
1 LJ
0.667 LW
N
171.4 13 M
171.4 15.24 L
S
GR
GS
[0.75 0 0 0.75 0 0.25] CT
0.149 GC
2 setlinecap
1 LJ
0.667 LW
N
216.2 13 M
216.2 15.24 L
S
GR
GS
[0.75 0 0 0.75 0 0.25] CT
0.149 GC
2 setlinecap
1 LJ
0.667 LW
N
261 13 M
261 15.24 L
S
GR
GS
[0.75 0 0 0.75 0 0.25] CT
0.149 GC
2 setlinecap
1 LJ
0.667 LW
N
37 137 M
37 135.88 L
S
GR
GS
[0.75 0 0 0.75 0 0.25] CT
0.149 GC
2 setlinecap
1 LJ
0.667 LW
N
50.486 137 M
50.486 135.88 L
S
GR
GS
[0.75 0 0 0.75 0 0.25] CT
0.149 GC
2 setlinecap
1 LJ
0.667 LW
N
58.375 137 M
58.375 135.88 L
S
GR
GS
[0.75 0 0 0.75 0 0.25] CT
0.149 GC
2 setlinecap
1 LJ
0.667 LW
N
63.972 137 M
63.972 135.88 L
S
GR
GS
[0.75 0 0 0.75 0 0.25] CT
0.149 GC
2 setlinecap
1 LJ
0.667 LW
N
68.314 137 M
68.314 135.88 L
S
GR
GS
[0.75 0 0 0.75 0 0.25] CT
0.149 GC
2 setlinecap
1 LJ
0.667 LW
N
71.861 137 M
71.861 135.88 L
S
GR
GS
[0.75 0 0 0.75 0 0.25] CT
0.149 GC
2 setlinecap
1 LJ
0.667 LW
N
74.86 137 M
74.86 135.88 L
S
GR
GS
[0.75 0 0 0.75 0 0.25] CT
0.149 GC
2 setlinecap
1 LJ
0.667 LW
N
77.458 137 M
77.458 135.88 L
S
GR
GS
[0.75 0 0 0.75 0 0.25] CT
0.149 GC
2 setlinecap
1 LJ
0.667 LW
N
79.75 137 M
79.75 135.88 L
S
GR
GS
[0.75 0 0 0.75 0 0.25] CT
0.149 GC
2 setlinecap
1 LJ
0.667 LW
N
81.8 137 M
81.8 135.88 L
S
GR
GS
[0.75 0 0 0.75 0 0.25] CT
0.149 GC
2 setlinecap
1 LJ
0.667 LW
N
95.286 137 M
95.286 135.88 L
S
GR
GS
[0.75 0 0 0.75 0 0.25] CT
0.149 GC
2 setlinecap
1 LJ
0.667 LW
N
103.175 137 M
103.175 135.88 L
S
GR
GS
[0.75 0 0 0.75 0 0.25] CT
0.149 GC
2 setlinecap
1 LJ
0.667 LW
N
108.772 137 M
108.772 135.88 L
S
GR
GS
[0.75 0 0 0.75 0 0.25] CT
0.149 GC
2 setlinecap
1 LJ
0.667 LW
N
113.114 137 M
113.114 135.88 L
S
GR
GS
[0.75 0 0 0.75 0 0.25] CT
0.149 GC
2 setlinecap
1 LJ
0.667 LW
N
116.661 137 M
116.661 135.88 L
S
GR
GS
[0.75 0 0 0.75 0 0.25] CT
0.149 GC
2 setlinecap
1 LJ
0.667 LW
N
119.66 137 M
119.66 135.88 L
S
GR
GS
[0.75 0 0 0.75 0 0.25] CT
0.149 GC
2 setlinecap
1 LJ
0.667 LW
N
122.258 137 M
122.258 135.88 L
S
GR
GS
[0.75 0 0 0.75 0 0.25] CT
0.149 GC
2 setlinecap
1 LJ
0.667 LW
N
124.55 137 M
124.55 135.88 L
S
GR
GS
[0.75 0 0 0.75 0 0.25] CT
0.149 GC
2 setlinecap
1 LJ
0.667 LW
N
126.6 137 M
126.6 135.88 L
S
GR
GS
[0.75 0 0 0.75 0 0.25] CT
0.149 GC
2 setlinecap
1 LJ
0.667 LW
N
140.086 137 M
140.086 135.88 L
S
GR
GS
[0.75 0 0 0.75 0 0.25] CT
0.149 GC
2 setlinecap
1 LJ
0.667 LW
N
147.975 137 M
147.975 135.88 L
S
GR
GS
[0.75 0 0 0.75 0 0.25] CT
0.149 GC
2 setlinecap
1 LJ
0.667 LW
N
153.572 137 M
153.572 135.88 L
S
GR
GS
[0.75 0 0 0.75 0 0.25] CT
0.149 GC
2 setlinecap
1 LJ
0.667 LW
N
157.914 137 M
157.914 135.88 L
S
GR
GS
[0.75 0 0 0.75 0 0.25] CT
0.149 GC
2 setlinecap
1 LJ
0.667 LW
N
161.461 137 M
161.461 135.88 L
S
GR
GS
[0.75 0 0 0.75 0 0.25] CT
0.149 GC
2 setlinecap
1 LJ
0.667 LW
N
164.46 137 M
164.46 135.88 L
S
GR
GS
[0.75 0 0 0.75 0 0.25] CT
0.149 GC
2 setlinecap
1 LJ
0.667 LW
N
167.058 137 M
167.058 135.88 L
S
GR
GS
[0.75 0 0 0.75 0 0.25] CT
0.149 GC
2 setlinecap
1 LJ
0.667 LW
N
169.35 137 M
169.35 135.88 L
S
GR
GS
[0.75 0 0 0.75 0 0.25] CT
0.149 GC
2 setlinecap
1 LJ
0.667 LW
N
171.4 137 M
171.4 135.88 L
S
GR
GS
[0.75 0 0 0.75 0 0.25] CT
0.149 GC
2 setlinecap
1 LJ
0.667 LW
N
184.886 137 M
184.886 135.88 L
S
GR
GS
[0.75 0 0 0.75 0 0.25] CT
0.149 GC
2 setlinecap
1 LJ
0.667 LW
N
192.775 137 M
192.775 135.88 L
S
GR
GS
[0.75 0 0 0.75 0 0.25] CT
0.149 GC
2 setlinecap
1 LJ
0.667 LW
N
198.372 137 M
198.372 135.88 L
S
GR
GS
[0.75 0 0 0.75 0 0.25] CT
0.149 GC
2 setlinecap
1 LJ
0.667 LW
N
202.714 137 M
202.714 135.88 L
S
GR
GS
[0.75 0 0 0.75 0 0.25] CT
0.149 GC
2 setlinecap
1 LJ
0.667 LW
N
206.261 137 M
206.261 135.88 L
S
GR
GS
[0.75 0 0 0.75 0 0.25] CT
0.149 GC
2 setlinecap
1 LJ
0.667 LW
N
209.26 137 M
209.26 135.88 L
S
GR
GS
[0.75 0 0 0.75 0 0.25] CT
0.149 GC
2 setlinecap
1 LJ
0.667 LW
N
211.858 137 M
211.858 135.88 L
S
GR
GS
[0.75 0 0 0.75 0 0.25] CT
0.149 GC
2 setlinecap
1 LJ
0.667 LW
N
214.15 137 M
214.15 135.88 L
S
GR
GS
[0.75 0 0 0.75 0 0.25] CT
0.149 GC
2 setlinecap
1 LJ
0.667 LW
N
216.2 137 M
216.2 135.88 L
S
GR
GS
[0.75 0 0 0.75 0 0.25] CT
0.149 GC
2 setlinecap
1 LJ
0.667 LW
N
229.686 137 M
229.686 135.88 L
S
GR
GS
[0.75 0 0 0.75 0 0.25] CT
0.149 GC
2 setlinecap
1 LJ
0.667 LW
N
237.575 137 M
237.575 135.88 L
S
GR
GS
[0.75 0 0 0.75 0 0.25] CT
0.149 GC
2 setlinecap
1 LJ
0.667 LW
N
243.172 137 M
243.172 135.88 L
S
GR
GS
[0.75 0 0 0.75 0 0.25] CT
0.149 GC
2 setlinecap
1 LJ
0.667 LW
N
247.514 137 M
247.514 135.88 L
S
GR
GS
[0.75 0 0 0.75 0 0.25] CT
0.149 GC
2 setlinecap
1 LJ
0.667 LW
N
251.061 137 M
251.061 135.88 L
S
GR
GS
[0.75 0 0 0.75 0 0.25] CT
0.149 GC
2 setlinecap
1 LJ
0.667 LW
N
254.06 137 M
254.06 135.88 L
S
GR
GS
[0.75 0 0 0.75 0 0.25] CT
0.149 GC
2 setlinecap
1 LJ
0.667 LW
N
256.658 137 M
256.658 135.88 L
S
GR
GS
[0.75 0 0 0.75 0 0.25] CT
0.149 GC
2 setlinecap
1 LJ
0.667 LW
N
258.95 137 M
258.95 135.88 L
S
GR
GS
[0.75 0 0 0.75 0 0.25] CT
0.149 GC
2 setlinecap
1 LJ
0.667 LW
N
261 137 M
261 135.88 L
S
GR
GS
[0.75 0 0 0.75 0 0.25] CT
0.149 GC
2 setlinecap
1 LJ
0.667 LW
N
37 13 M
37 14.12 L
S
GR
GS
[0.75 0 0 0.75 0 0.25] CT
0.149 GC
2 setlinecap
1 LJ
0.667 LW
N
50.486 13 M
50.486 14.12 L
S
GR
GS
[0.75 0 0 0.75 0 0.25] CT
0.149 GC
2 setlinecap
1 LJ
0.667 LW
N
58.375 13 M
58.375 14.12 L
S
GR
GS
[0.75 0 0 0.75 0 0.25] CT
0.149 GC
2 setlinecap
1 LJ
0.667 LW
N
63.972 13 M
63.972 14.12 L
S
GR
GS
[0.75 0 0 0.75 0 0.25] CT
0.149 GC
2 setlinecap
1 LJ
0.667 LW
N
68.314 13 M
68.314 14.12 L
S
GR
GS
[0.75 0 0 0.75 0 0.25] CT
0.149 GC
2 setlinecap
1 LJ
0.667 LW
N
71.861 13 M
71.861 14.12 L
S
GR
GS
[0.75 0 0 0.75 0 0.25] CT
0.149 GC
2 setlinecap
1 LJ
0.667 LW
N
74.86 13 M
74.86 14.12 L
S
GR
GS
[0.75 0 0 0.75 0 0.25] CT
0.149 GC
2 setlinecap
1 LJ
0.667 LW
N
77.458 13 M
77.458 14.12 L
S
GR
GS
[0.75 0 0 0.75 0 0.25] CT
0.149 GC
2 setlinecap
1 LJ
0.667 LW
N
79.75 13 M
79.75 14.12 L
S
GR
GS
[0.75 0 0 0.75 0 0.25] CT
0.149 GC
2 setlinecap
1 LJ
0.667 LW
N
81.8 13 M
81.8 14.12 L
S
GR
GS
[0.75 0 0 0.75 0 0.25] CT
0.149 GC
2 setlinecap
1 LJ
0.667 LW
N
95.286 13 M
95.286 14.12 L
S
GR
GS
[0.75 0 0 0.75 0 0.25] CT
0.149 GC
2 setlinecap
1 LJ
0.667 LW
N
103.175 13 M
103.175 14.12 L
S
GR
GS
[0.75 0 0 0.75 0 0.25] CT
0.149 GC
2 setlinecap
1 LJ
0.667 LW
N
108.772 13 M
108.772 14.12 L
S
GR
GS
[0.75 0 0 0.75 0 0.25] CT
0.149 GC
2 setlinecap
1 LJ
0.667 LW
N
113.114 13 M
113.114 14.12 L
S
GR
GS
[0.75 0 0 0.75 0 0.25] CT
0.149 GC
2 setlinecap
1 LJ
0.667 LW
N
116.661 13 M
116.661 14.12 L
S
GR
GS
[0.75 0 0 0.75 0 0.25] CT
0.149 GC
2 setlinecap
1 LJ
0.667 LW
N
119.66 13 M
119.66 14.12 L
S
GR
GS
[0.75 0 0 0.75 0 0.25] CT
0.149 GC
2 setlinecap
1 LJ
0.667 LW
N
122.258 13 M
122.258 14.12 L
S
GR
GS
[0.75 0 0 0.75 0 0.25] CT
0.149 GC
2 setlinecap
1 LJ
0.667 LW
N
124.55 13 M
124.55 14.12 L
S
GR
GS
[0.75 0 0 0.75 0 0.25] CT
0.149 GC
2 setlinecap
1 LJ
0.667 LW
N
126.6 13 M
126.6 14.12 L
S
GR
GS
[0.75 0 0 0.75 0 0.25] CT
0.149 GC
2 setlinecap
1 LJ
0.667 LW
N
140.086 13 M
140.086 14.12 L
S
GR
GS
[0.75 0 0 0.75 0 0.25] CT
0.149 GC
2 setlinecap
1 LJ
0.667 LW
N
147.975 13 M
147.975 14.12 L
S
GR
GS
[0.75 0 0 0.75 0 0.25] CT
0.149 GC
2 setlinecap
1 LJ
0.667 LW
N
153.572 13 M
153.572 14.12 L
S
GR
GS
[0.75 0 0 0.75 0 0.25] CT
0.149 GC
2 setlinecap
1 LJ
0.667 LW
N
157.914 13 M
157.914 14.12 L
S
GR
GS
[0.75 0 0 0.75 0 0.25] CT
0.149 GC
2 setlinecap
1 LJ
0.667 LW
N
161.461 13 M
161.461 14.12 L
S
GR
GS
[0.75 0 0 0.75 0 0.25] CT
0.149 GC
2 setlinecap
1 LJ
0.667 LW
N
164.46 13 M
164.46 14.12 L
S
GR
GS
[0.75 0 0 0.75 0 0.25] CT
0.149 GC
2 setlinecap
1 LJ
0.667 LW
N
167.058 13 M
167.058 14.12 L
S
GR
GS
[0.75 0 0 0.75 0 0.25] CT
0.149 GC
2 setlinecap
1 LJ
0.667 LW
N
169.35 13 M
169.35 14.12 L
S
GR
GS
[0.75 0 0 0.75 0 0.25] CT
0.149 GC
2 setlinecap
1 LJ
0.667 LW
N
171.4 13 M
171.4 14.12 L
S
GR
GS
[0.75 0 0 0.75 0 0.25] CT
0.149 GC
2 setlinecap
1 LJ
0.667 LW
N
184.886 13 M
184.886 14.12 L
S
GR
GS
[0.75 0 0 0.75 0 0.25] CT
0.149 GC
2 setlinecap
1 LJ
0.667 LW
N
192.775 13 M
192.775 14.12 L
S
GR
GS
[0.75 0 0 0.75 0 0.25] CT
0.149 GC
2 setlinecap
1 LJ
0.667 LW
N
198.372 13 M
198.372 14.12 L
S
GR
GS
[0.75 0 0 0.75 0 0.25] CT
0.149 GC
2 setlinecap
1 LJ
0.667 LW
N
202.714 13 M
202.714 14.12 L
S
GR
GS
[0.75 0 0 0.75 0 0.25] CT
0.149 GC
2 setlinecap
1 LJ
0.667 LW
N
206.261 13 M
206.261 14.12 L
S
GR
GS
[0.75 0 0 0.75 0 0.25] CT
0.149 GC
2 setlinecap
1 LJ
0.667 LW
N
209.26 13 M
209.26 14.12 L
S
GR
GS
[0.75 0 0 0.75 0 0.25] CT
0.149 GC
2 setlinecap
1 LJ
0.667 LW
N
211.858 13 M
211.858 14.12 L
S
GR
GS
[0.75 0 0 0.75 0 0.25] CT
0.149 GC
2 setlinecap
1 LJ
0.667 LW
N
214.15 13 M
214.15 14.12 L
S
GR
GS
[0.75 0 0 0.75 0 0.25] CT
0.149 GC
2 setlinecap
1 LJ
0.667 LW
N
216.2 13 M
216.2 14.12 L
S
GR
GS
[0.75 0 0 0.75 0 0.25] CT
0.149 GC
2 setlinecap
1 LJ
0.667 LW
N
229.686 13 M
229.686 14.12 L
S
GR
GS
[0.75 0 0 0.75 0 0.25] CT
0.149 GC
2 setlinecap
1 LJ
0.667 LW
N
237.575 13 M
237.575 14.12 L
S
GR
GS
[0.75 0 0 0.75 0 0.25] CT
0.149 GC
2 setlinecap
1 LJ
0.667 LW
N
243.172 13 M
243.172 14.12 L
S
GR
GS
[0.75 0 0 0.75 0 0.25] CT
0.149 GC
2 setlinecap
1 LJ
0.667 LW
N
247.514 13 M
247.514 14.12 L
S
GR
GS
[0.75 0 0 0.75 0 0.25] CT
0.149 GC
2 setlinecap
1 LJ
0.667 LW
N
251.061 13 M
251.061 14.12 L
S
GR
GS
[0.75 0 0 0.75 0 0.25] CT
0.149 GC
2 setlinecap
1 LJ
0.667 LW
N
254.06 13 M
254.06 14.12 L
S
GR
GS
[0.75 0 0 0.75 0 0.25] CT
0.149 GC
2 setlinecap
1 LJ
0.667 LW
N
256.658 13 M
256.658 14.12 L
S
GR
GS
[0.75 0 0 0.75 0 0.25] CT
0.149 GC
2 setlinecap
1 LJ
0.667 LW
N
258.95 13 M
258.95 14.12 L
S
GR
GS
[0.75 0 0 0.75 0 0.25] CT
0.149 GC
2 setlinecap
1 LJ
0.667 LW
N
261 13 M
261 14.12 L
S
GR
GS
[0.75 0 0 0.75 20.25 116.5] CT
0.149 GC
/Helvetica 11.333 F
GS
[1 0 0 1 0 0] CT
0 0 moveto 
1 -1 scale
(10) t 
GR
GR
GS
[0.75 0 0 0.75 30 112.75] CT
0.149 GC
/Helvetica 9.067 F
GS
[1 0 0 1 0 0] CT
0 0 moveto 
1 -1 scale
(0) t 
GR
GR
GS
[0.75 0 0 0.75 54 116.5] CT
0.149 GC
/Helvetica 11.333 F
GS
[1 0 0 1 0 0] CT
0 0 moveto 
1 -1 scale
(10) t 
GR
GR
GS
[0.75 0 0 0.75 63.75 112.75] CT
0.149 GC
/Helvetica 9.067 F
GS
[1 0 0 1 0 0] CT
0 0 moveto 
1 -1 scale
(1) t 
GR
GR
GS
[0.75 0 0 0.75 87.75 116.5] CT
0.149 GC
/Helvetica 11.333 F
GS
[1 0 0 1 0 0] CT
0 0 moveto 
1 -1 scale
(10) t 
GR
GR
GS
[0.75 0 0 0.75 97.5 112.75] CT
0.149 GC
/Helvetica 9.067 F
GS
[1 0 0 1 0 0] CT
0 0 moveto 
1 -1 scale
(2) t 
GR
GR
GS
[0.75 0 0 0.75 120.75 116.5] CT
0.149 GC
/Helvetica 11.333 F
GS
[1 0 0 1 0 0] CT
0 0 moveto 
1 -1 scale
(10) t 
GR
GR
GS
[0.75 0 0 0.75 130.5 112.75] CT
0.149 GC
/Helvetica 9.067 F
GS
[1 0 0 1 0 0] CT
0 0 moveto 
1 -1 scale
(3) t 
GR
GR
GS
[0.75 0 0 0.75 154.5 116.5] CT
0.149 GC
/Helvetica 11.333 F
GS
[1 0 0 1 0 0] CT
0 0 moveto 
1 -1 scale
(10) t 
GR
GR
GS
[0.75 0 0 0.75 164.25 112.75] CT
0.149 GC
/Helvetica 9.067 F
GS
[1 0 0 1 0 0] CT
0 0 moveto 
1 -1 scale
(4) t 
GR
GR
GS
[0.75 0 0 0.75 188.25 116.5] CT
0.149 GC
/Helvetica 11.333 F
GS
[1 0 0 1 0 0] CT
0 0 moveto 
1 -1 scale
(10) t 
GR
GR
GS
[0.75 0 0 0.75 198 112.75] CT
0.149 GC
/Helvetica 9.067 F
GS
[1 0 0 1 0 0] CT
0 0 moveto 
1 -1 scale
(5) t 
GR
GR
GS
[0.75 0 0 0.75 111.75008 118.95] CT
0.149 GC
N
-5.125 10.472 M
-5.235 10.472 -5.235 10.316 QT
-5.235 10.284 -5.219 10.214 QT
-5.204 10.144 -5.172 10.097 QT
-5.141 10.05 -5.094 10.05 QT
-3.938 10.05 -3.75 9.316 QT
-2.125 2.753 L
-2.454 2.691 -3.172 2.691 QT
-3.297 2.691 -3.297 2.534 QT
-3.297 2.503 -3.274 2.433 QT
-3.25 2.363 -3.219 2.316 QT
-3.188 2.269 -3.141 2.269 QT
-1.063 2.269 L
-0.985 2.269 -0.954 2.347 QT
1.703 8.691 L
3.031 3.378 L
3.062 3.253 3.062 3.206 QT
3.062 2.691 2.14 2.691 QT
2.015 2.691 2.015 2.534 QT
2.062 2.378 2.086 2.324 QT
2.109 2.269 2.218 2.269 QT
4.796 2.269 L
4.906 2.269 4.906 2.425 QT
4.906 2.456 4.882 2.534 QT
4.859 2.613 4.828 2.652 QT
4.796 2.691 4.75 2.691 QT
3.609 2.691 3.421 3.425 QT
1.703 10.363 L
1.656 10.472 1.578 10.472 QT
1.421 10.472 L
1.343 10.472 1.328 10.394 QT
-1.735 3.128 L
-1.766 3.05 L
-1.782 3.034 -1.782 3.019 QT
-3.375 9.363 L
-3.391 9.394 -3.391 9.441 QT
-3.391 9.488 -3.407 9.55 QT
-3.407 9.863 -3.141 9.956 QT
-2.875 10.05 -2.469 10.05 QT
-2.36 10.05 -2.36 10.206 QT
-2.391 10.378 -2.422 10.425 QT
-2.454 10.472 -2.547 10.472 QT
-5.125 10.472 L
cp
f
GR
GS
[0.75 0 0 0.75 0 0.25] CT
0.149 GC
2 setlinecap
1 LJ
0.667 LW
N
37 137 M
37 13 L
S
GR
GS
[0.75 0 0 0.75 0 0.25] CT
0.149 GC
2 setlinecap
1 LJ
0.667 LW
N
261 137 M
261 13 L
S
GR
GS
[0.75 0 0 0.75 0 0.25] CT
0.149 GC
2 setlinecap
1 LJ
0.667 LW
N
37 131.992 M
39.24 131.992 L
S
GR
GS
[0.75 0 0 0.75 0 0.25] CT
0.149 GC
2 setlinecap
1 LJ
0.667 LW
N
37 83.262 M
39.24 83.262 L
S
GR
GS
[0.75 0 0 0.75 0 0.25] CT
0.149 GC
2 setlinecap
1 LJ
0.667 LW
N
37 34.532 M
39.24 34.532 L
S
GR
GS
[0.75 0 0 0.75 0 0.25] CT
0.149 GC
2 setlinecap
1 LJ
0.667 LW
N
261 131.992 M
258.76 131.992 L
S
GR
GS
[0.75 0 0 0.75 0 0.25] CT
0.149 GC
2 setlinecap
1 LJ
0.667 LW
N
261 83.262 M
258.76 83.262 L
S
GR
GS
[0.75 0 0 0.75 0 0.25] CT
0.149 GC
2 setlinecap
1 LJ
0.667 LW
N
261 34.532 M
258.76 34.532 L
S
GR
GS
[0.75 0 0 0.75 0 0.25] CT
0.149 GC
2 setlinecap
1 LJ
0.667 LW
N
37 136.714 M
38.12 136.714 L
S
GR
GS
[0.75 0 0 0.75 0 0.25] CT
0.149 GC
2 setlinecap
1 LJ
0.667 LW
N
37 134.221 M
38.12 134.221 L
S
GR
GS
[0.75 0 0 0.75 0 0.25] CT
0.149 GC
2 setlinecap
1 LJ
0.667 LW
N
37 131.992 M
38.12 131.992 L
S
GR
GS
[0.75 0 0 0.75 0 0.25] CT
0.149 GC
2 setlinecap
1 LJ
0.667 LW
N
37 117.323 M
38.12 117.323 L
S
GR
GS
[0.75 0 0 0.75 0 0.25] CT
0.149 GC
2 setlinecap
1 LJ
0.667 LW
N
37 108.742 M
38.12 108.742 L
S
GR
GS
[0.75 0 0 0.75 0 0.25] CT
0.149 GC
2 setlinecap
1 LJ
0.667 LW
N
37 102.653 M
38.12 102.653 L
S
GR
GS
[0.75 0 0 0.75 0 0.25] CT
0.149 GC
2 setlinecap
1 LJ
0.667 LW
N
37 97.931 M
38.12 97.931 L
S
GR
GS
[0.75 0 0 0.75 0 0.25] CT
0.149 GC
2 setlinecap
1 LJ
0.667 LW
N
37 94.073 M
38.12 94.073 L
S
GR
GS
[0.75 0 0 0.75 0 0.25] CT
0.149 GC
2 setlinecap
1 LJ
0.667 LW
N
37 90.81 M
38.12 90.81 L
S
GR
GS
[0.75 0 0 0.75 0 0.25] CT
0.149 GC
2 setlinecap
1 LJ
0.667 LW
N
37 87.984 M
38.12 87.984 L
S
GR
GS
[0.75 0 0 0.75 0 0.25] CT
0.149 GC
2 setlinecap
1 LJ
0.667 LW
N
37 85.492 M
38.12 85.492 L
S
GR
GS
[0.75 0 0 0.75 0 0.25] CT
0.149 GC
2 setlinecap
1 LJ
0.667 LW
N
37 83.262 M
38.12 83.262 L
S
GR
GS
[0.75 0 0 0.75 0 0.25] CT
0.149 GC
2 setlinecap
1 LJ
0.667 LW
N
37 68.593 M
38.12 68.593 L
S
GR
GS
[0.75 0 0 0.75 0 0.25] CT
0.149 GC
2 setlinecap
1 LJ
0.667 LW
N
37 60.012 M
38.12 60.012 L
S
GR
GS
[0.75 0 0 0.75 0 0.25] CT
0.149 GC
2 setlinecap
1 LJ
0.667 LW
N
37 53.924 M
38.12 53.924 L
S
GR
GS
[0.75 0 0 0.75 0 0.25] CT
0.149 GC
2 setlinecap
1 LJ
0.667 LW
N
37 49.201 M
38.12 49.201 L
S
GR
GS
[0.75 0 0 0.75 0 0.25] CT
0.149 GC
2 setlinecap
1 LJ
0.667 LW
N
37 45.343 M
38.12 45.343 L
S
GR
GS
[0.75 0 0 0.75 0 0.25] CT
0.149 GC
2 setlinecap
1 LJ
0.667 LW
N
37 42.08 M
38.12 42.08 L
S
GR
GS
[0.75 0 0 0.75 0 0.25] CT
0.149 GC
2 setlinecap
1 LJ
0.667 LW
N
37 39.254 M
38.12 39.254 L
S
GR
GS
[0.75 0 0 0.75 0 0.25] CT
0.149 GC
2 setlinecap
1 LJ
0.667 LW
N
37 36.762 M
38.12 36.762 L
S
GR
GS
[0.75 0 0 0.75 0 0.25] CT
0.149 GC
2 setlinecap
1 LJ
0.667 LW
N
37 34.532 M
38.12 34.532 L
S
GR
GS
[0.75 0 0 0.75 0 0.25] CT
0.149 GC
2 setlinecap
1 LJ
0.667 LW
N
37 19.863 M
38.12 19.863 L
S
GR
GS
[0.75 0 0 0.75 0 0.25] CT
0.149 GC
2 setlinecap
1 LJ
0.667 LW
N
261 136.714 M
259.88 136.714 L
S
GR
GS
[0.75 0 0 0.75 0 0.25] CT
0.149 GC
2 setlinecap
1 LJ
0.667 LW
N
261 134.221 M
259.88 134.221 L
S
GR
GS
[0.75 0 0 0.75 0 0.25] CT
0.149 GC
2 setlinecap
1 LJ
0.667 LW
N
261 131.992 M
259.88 131.992 L
S
GR
GS
[0.75 0 0 0.75 0 0.25] CT
0.149 GC
2 setlinecap
1 LJ
0.667 LW
N
261 117.323 M
259.88 117.323 L
S
GR
GS
[0.75 0 0 0.75 0 0.25] CT
0.149 GC
2 setlinecap
1 LJ
0.667 LW
N
261 108.742 M
259.88 108.742 L
S
GR
GS
[0.75 0 0 0.75 0 0.25] CT
0.149 GC
2 setlinecap
1 LJ
0.667 LW
N
261 102.653 M
259.88 102.653 L
S
GR
GS
[0.75 0 0 0.75 0 0.25] CT
0.149 GC
2 setlinecap
1 LJ
0.667 LW
N
261 97.931 M
259.88 97.931 L
S
GR
GS
[0.75 0 0 0.75 0 0.25] CT
0.149 GC
2 setlinecap
1 LJ
0.667 LW
N
261 94.073 M
259.88 94.073 L
S
GR
GS
[0.75 0 0 0.75 0 0.25] CT
0.149 GC
2 setlinecap
1 LJ
0.667 LW
N
261 90.81 M
259.88 90.81 L
S
GR
GS
[0.75 0 0 0.75 0 0.25] CT
0.149 GC
2 setlinecap
1 LJ
0.667 LW
N
261 87.984 M
259.88 87.984 L
S
GR
GS
[0.75 0 0 0.75 0 0.25] CT
0.149 GC
2 setlinecap
1 LJ
0.667 LW
N
261 85.492 M
259.88 85.492 L
S
GR
GS
[0.75 0 0 0.75 0 0.25] CT
0.149 GC
2 setlinecap
1 LJ
0.667 LW
N
261 83.262 M
259.88 83.262 L
S
GR
GS
[0.75 0 0 0.75 0 0.25] CT
0.149 GC
2 setlinecap
1 LJ
0.667 LW
N
261 68.593 M
259.88 68.593 L
S
GR
GS
[0.75 0 0 0.75 0 0.25] CT
0.149 GC
2 setlinecap
1 LJ
0.667 LW
N
261 60.012 M
259.88 60.012 L
S
GR
GS
[0.75 0 0 0.75 0 0.25] CT
0.149 GC
2 setlinecap
1 LJ
0.667 LW
N
261 53.924 M
259.88 53.924 L
S
GR
GS
[0.75 0 0 0.75 0 0.25] CT
0.149 GC
2 setlinecap
1 LJ
0.667 LW
N
261 49.201 M
259.88 49.201 L
S
GR
GS
[0.75 0 0 0.75 0 0.25] CT
0.149 GC
2 setlinecap
1 LJ
0.667 LW
N
261 45.343 M
259.88 45.343 L
S
GR
GS
[0.75 0 0 0.75 0 0.25] CT
0.149 GC
2 setlinecap
1 LJ
0.667 LW
N
261 42.08 M
259.88 42.08 L
S
GR
GS
[0.75 0 0 0.75 0 0.25] CT
0.149 GC
2 setlinecap
1 LJ
0.667 LW
N
261 39.254 M
259.88 39.254 L
S
GR
GS
[0.75 0 0 0.75 0 0.25] CT
0.149 GC
2 setlinecap
1 LJ
0.667 LW
N
261 36.762 M
259.88 36.762 L
S
GR
GS
[0.75 0 0 0.75 0 0.25] CT
0.149 GC
2 setlinecap
1 LJ
0.667 LW
N
261 34.532 M
259.88 34.532 L
S
GR
GS
[0.75 0 0 0.75 0 0.25] CT
0.149 GC
2 setlinecap
1 LJ
0.667 LW
N
261 19.863 M
259.88 19.863 L
S
GR
GS
[0.75 0 0 0.75 9 103.75] CT
0.149 GC
/Helvetica 11.333 F
GS
[1 0 0 1 0 0] CT
0 0 moveto 
1 -1 scale
(10) t 
GR
GR
GS
[0.75 0 0 0.75 18.75 100] CT
0.149 GC
/Helvetica 9.067 F
GS
[1 0 0 1 0 0] CT
0 0 moveto 
1 -1 scale
(-2) t 
GR
GR
GS
[0.75 0 0 0.75 9 67] CT
0.149 GC
/Helvetica 11.333 F
GS
[1 0 0 1 0 0] CT
0 0 moveto 
1 -1 scale
(10) t 
GR
GR
GS
[0.75 0 0 0.75 18.75 63.25] CT
0.149 GC
/Helvetica 9.067 F
GS
[1 0 0 1 0 0] CT
0 0 moveto 
1 -1 scale
(-1) t 
GR
GR
GS
[0.75 0 0 0.75 11.25 31] CT
0.149 GC
/Helvetica 11.333 F
GS
[1 0 0 1 0 0] CT
0 0 moveto 
1 -1 scale
(10) t 
GR
GR
GS
[0.75 0 0 0.75 21 27.25] CT
0.149 GC
/Helvetica 9.067 F
GS
[1 0 0 1 0 0] CT
0 0 moveto 
1 -1 scale
(0) t 
GR
GR
GS
[0.75 0 0 0.75 0 0.25] CT
1 0 0 RC
1 LJ
0.667 LW
N
37 67.894 M
50.486 69.99 L
58.375 68.122 L
63.972 69.071 L
68.314 69.855 L
71.861 72.291 L
74.86 72.399 L
77.458 73.262 L
79.75 72.845 L
81.8 72.943 L
83.654 73.653 L
85.347 74.579 L
88.347 75.616 L
89.689 75.084 L
92.124 75.194 L
94.288 76.031 L
96.235 76.137 L
98.005 76.768 L
100.391 76.75 L
101.833 77.308 L
103.813 77.798 L
106.174 77.946 L
108.28 78.341 L
110.179 78.73 L
112.32 79.38 L
114.248 79.787 L
116.002 80.156 L
118.219 80.63 L
120.208 81.314 L
122.014 81.805 L
124.113 82.237 L
126.007 82.883 L
128.097 83.717 L
130.147 84.481 L
132.149 85.398 L
134.096 86.16 L
136.106 86.795 L
138.036 87.467 L
139.989 88.454 L
142.029 89.326 L
144.035 90.152 L
145.997 91.059 L
147.975 91.818 L
149.947 92.747 L
151.95 93.647 L
153.91 94.566 L
155.907 95.599 L
157.914 96.521 L
159.874 97.369 L
161.878 98.28 L
163.839 99.114 L
165.829 100.092 L
167.822 101.15 L
169.799 102.101 L
171.785 102.99 L
173.778 103.871 L
175.757 104.843 L
177.737 105.776 L
179.725 106.694 L
181.701 107.581 L
183.682 108.541 L
185.668 109.478 L
187.648 110.36 L
189.636 111.336 L
191.619 112.214 L
193.6 113.103 L
195.579 114.077 L
197.563 115.051 L
199.547 115.915 L
201.531 116.854 L
203.511 117.742 L
205.494 118.673 L
207.477 119.616 L
209.459 120.455 L
211.441 121.365 L
213.423 122.177 L
215.406 123.069 L
217.389 123.913 L
219.371 124.75 L
221.352 125.564 L
223.335 126.368 L
225.318 127.154 L
227.3 127.946 L
229.283 128.714 L
231.265 129.389 L
233.247 130.012 L
235.23 130.666 L
237.212 131.283 L
239.195 131.865 L
241.177 132.461 L
243.159 132.991 L
245.141 133.547 L
247.124 134.032 L
249.106 134.546 L
251.088 134.97 L
253.071 135.4 L
255.053 135.78 L
257.035 136.161 L
259.018 136.433 L
261 136.751 L
S
GR
GS
[0.75 0 0 0.75 0 0.25] CT
1 0 0 RC
1 LJ
0.667 LW
N
37 61.527 M
50.486 66.947 L
58.375 65.191 L
63.972 68.068 L
68.314 69.819 L
71.861 71.628 L
74.86 71.822 L
77.458 72.897 L
79.75 73.41 L
81.8 73.904 L
83.654 74.63 L
85.347 75.177 L
88.347 75.405 L
89.689 76.19 L
92.124 76.465 L
94.288 76.974 L
96.235 77.115 L
98.005 76.768 L
100.391 77.786 L
101.833 77.811 L
103.813 78.12 L
106.174 78.532 L
108.28 79.146 L
110.179 79.641 L
112.32 80.478 L
114.248 81.085 L
116.002 81.388 L
118.219 81.974 L
120.208 82.699 L
122.014 83.167 L
124.113 83.922 L
126.007 84.517 L
128.097 85.157 L
130.147 85.717 L
132.149 86.207 L
134.096 86.776 L
136.106 87.377 L
138.036 88.331 L
139.989 89.071 L
142.029 89.816 L
144.035 90.403 L
145.997 91.319 L
147.975 92.179 L
149.947 93.111 L
151.95 93.927 L
153.91 94.788 L
155.907 95.786 L
157.914 96.72 L
159.874 97.609 L
161.878 98.503 L
163.839 99.448 L
165.829 100.466 L
167.822 101.31 L
169.799 102.223 L
171.785 103.28 L
173.778 104.254 L
175.757 105.123 L
177.737 106.033 L
179.725 106.938 L
181.701 107.831 L
183.682 108.76 L
185.668 109.527 L
187.648 110.373 L
189.636 111.248 L
191.619 112.251 L
193.6 113.187 L
195.579 114.074 L
197.563 114.959 L
199.547 115.896 L
201.531 116.794 L
203.511 117.77 L
205.494 118.641 L
207.477 119.623 L
209.459 120.498 L
211.441 121.31 L
213.423 122.177 L
215.406 123.081 L
217.389 123.938 L
219.371 124.773 L
221.352 125.552 L
223.335 126.316 L
225.318 127.084 L
227.3 127.883 L
229.283 128.61 L
231.265 129.349 L
233.247 130.081 L
235.23 130.709 L
237.212 131.332 L
239.195 131.997 L
241.177 132.579 L
243.159 133.126 L
245.141 133.64 L
247.124 134.128 L
249.106 134.6 L
251.088 135.037 L
253.071 135.46 L
255.053 135.814 L
257.035 136.141 L
259.018 136.502 L
261 136.811 L
S
GR
GS
[0.75 0 0 0.75 0 0.25] CT
1 0 0 RC
1 LJ
0.667 LW
N
37 70.066 M
50.486 73.072 L
58.375 71.781 L
63.972 74.861 L
68.314 73.172 L
71.861 72.527 L
74.86 73.487 L
77.458 74.915 L
79.75 74.12 L
81.8 75.649 L
83.654 75.357 L
85.347 76.093 L
88.347 77.065 L
89.689 78.063 L
92.124 77.404 L
94.288 78.287 L
96.235 78.206 L
98.005 78.427 L
100.391 78.865 L
101.833 79.288 L
103.813 79.345 L
106.174 80.415 L
108.28 80.768 L
110.179 80.945 L
112.32 81.443 L
114.248 81.956 L
116.002 82.21 L
118.219 82.498 L
120.208 83.186 L
122.014 83.614 L
124.113 84.487 L
126.007 84.928 L
128.097 85.78 L
130.147 86.352 L
132.149 86.974 L
134.096 87.628 L
136.106 88.163 L
138.036 88.94 L
139.989 89.952 L
142.029 90.766 L
144.035 91.406 L
145.997 92.199 L
147.975 93.085 L
149.947 93.986 L
151.95 94.962 L
153.91 95.752 L
155.907 96.65 L
157.914 97.568 L
159.874 98.405 L
161.878 99.455 L
163.839 100.379 L
165.829 101.291 L
167.822 102.143 L
169.799 103.081 L
171.785 103.967 L
173.778 104.791 L
175.757 105.62 L
177.737 106.524 L
179.725 107.299 L
181.701 108.371 L
183.682 109.314 L
185.668 110.233 L
187.648 111.12 L
189.636 112.011 L
191.619 112.893 L
193.6 113.83 L
195.579 114.699 L
197.563 115.577 L
199.547 116.476 L
201.531 117.354 L
203.511 118.23 L
205.494 119.175 L
207.477 119.992 L
209.459 120.891 L
211.441 121.783 L
213.423 122.656 L
215.406 123.511 L
217.389 124.316 L
219.371 125.185 L
221.352 125.857 L
223.335 126.641 L
225.318 127.401 L
227.3 128.159 L
229.283 128.85 L
231.265 129.602 L
233.247 130.232 L
235.23 130.876 L
237.212 131.453 L
239.195 132.014 L
241.177 132.575 L
243.159 133.173 L
245.141 133.724 L
247.124 134.201 L
249.106 134.668 L
251.088 135.092 L
253.071 135.441 L
255.053 135.831 L
257.035 136.187 L
259.018 136.497 L
261 136.843 L
S
GR
GS
[0.75 0 0 0.75 0 0.25] CT
1 0 0 RC
1 LJ
0.667 LW
N
37 58.923 M
50.486 65.357 L
58.375 70.257 L
63.972 69.217 L
68.314 69.159 L
71.861 70.733 L
74.86 72.727 L
77.458 72.379 L
79.75 73.537 L
81.8 74.147 L
83.654 74.727 L
85.347 75.047 L
88.347 75.673 L
89.689 75.633 L
92.124 76.794 L
94.288 77.405 L
96.235 78.455 L
98.005 78.622 L
100.391 79.044 L
101.833 78.33 L
103.813 79.23 L
106.174 79.793 L
108.28 80.378 L
110.179 80.755 L
112.32 81.07 L
114.248 81.668 L
116.002 81.667 L
118.219 82.495 L
120.208 82.969 L
122.014 83.038 L
124.113 83.754 L
126.007 84.301 L
128.097 85 L
130.147 85.615 L
132.149 86.25 L
134.096 86.817 L
136.106 87.554 L
138.036 88.273 L
139.989 88.907 L
142.029 89.775 L
144.035 90.481 L
145.997 91.476 L
147.975 92.273 L
149.947 93.119 L
151.95 94.021 L
153.91 94.769 L
155.907 95.795 L
157.914 96.758 L
159.874 97.772 L
161.878 98.738 L
163.839 99.6 L
165.829 100.562 L
167.822 101.473 L
169.799 102.394 L
171.785 103.31 L
173.778 104.203 L
175.757 105.099 L
177.737 106.086 L
179.725 107.013 L
181.701 107.923 L
183.682 108.912 L
185.668 109.838 L
187.648 110.757 L
189.636 111.61 L
191.619 112.507 L
193.6 113.384 L
195.579 114.209 L
197.563 115.123 L
199.547 116.124 L
201.531 117.071 L
203.511 117.951 L
205.494 118.849 L
207.477 119.732 L
209.459 120.6 L
211.441 121.53 L
213.423 122.355 L
215.406 123.164 L
217.389 124.038 L
219.371 124.959 L
221.352 125.74 L
223.335 126.56 L
225.318 127.295 L
227.3 127.958 L
229.283 128.719 L
231.265 129.346 L
233.247 130.012 L
235.23 130.677 L
237.212 131.319 L
239.195 131.891 L
241.177 132.496 L
243.159 132.984 L
245.141 133.538 L
247.124 134.071 L
249.106 134.579 L
251.088 135.013 L
253.071 135.441 L
255.053 135.786 L
257.035 136.177 L
259.018 136.513 L
261 136.831 L
S
GR
GS
[0.75 0 0 0.75 0 0.25] CT
1 0 0 RC
1 LJ
0.667 LW
N
37 76.659 M
50.486 75.939 L
58.375 76.596 L
63.972 74.759 L
68.314 77.132 L
71.861 75.289 L
74.86 75.468 L
77.458 76.521 L
79.75 75.425 L
81.8 76.357 L
83.654 75.7 L
85.347 76.188 L
88.347 77.428 L
89.689 77.603 L
92.124 77.896 L
94.288 78.645 L
96.235 78.219 L
98.005 78.517 L
100.391 78.963 L
101.833 78.52 L
103.813 79.236 L
106.174 79.676 L
108.28 80.34 L
110.179 80.338 L
112.32 81.142 L
114.248 81.506 L
116.002 82.271 L
118.219 82.618 L
120.208 82.982 L
122.014 83.359 L
124.113 83.95 L
126.007 84.743 L
128.097 85.496 L
130.147 86.289 L
132.149 87.124 L
134.096 87.536 L
136.106 88.376 L
138.036 89.003 L
139.989 89.83 L
142.029 90.591 L
144.035 91.436 L
145.997 92.221 L
147.975 92.891 L
149.947 93.744 L
151.95 94.634 L
153.91 95.483 L
155.907 96.418 L
157.914 97.204 L
159.874 98.002 L
161.878 98.923 L
163.839 99.674 L
165.829 100.51 L
167.822 101.415 L
169.799 102.286 L
171.785 103.176 L
173.778 104.121 L
175.757 105.107 L
177.737 106.061 L
179.725 107.092 L
181.701 108.06 L
183.682 109.063 L
185.668 110.007 L
187.648 110.974 L
189.636 111.822 L
191.619 112.729 L
193.6 113.684 L
195.579 114.544 L
197.563 115.429 L
199.547 116.34 L
201.531 117.252 L
203.511 118.148 L
205.494 119.033 L
207.477 119.842 L
209.459 120.726 L
211.441 121.537 L
213.423 122.401 L
215.406 123.228 L
217.389 124.091 L
219.371 124.888 L
221.352 125.746 L
223.335 126.568 L
225.318 127.358 L
227.3 128.194 L
229.283 128.88 L
231.265 129.588 L
233.247 130.24 L
235.23 130.838 L
237.212 131.406 L
239.195 132.065 L
241.177 132.635 L
243.159 133.216 L
245.141 133.694 L
247.124 134.241 L
249.106 134.75 L
251.088 135.227 L
253.071 135.639 L
255.053 136.053 L
257.035 136.449 L
259.018 136.729 L
261 137 L
S
GR
GS
[0.75 0 0 0.75 0 0.25] CT
1 0 0 RC
1 LJ
0.667 LW
N
37 82.964 M
50.486 76.18 L
58.375 75.817 L
63.972 74.073 L
68.314 74.771 L
71.861 75.48 L
74.86 74.489 L
77.458 74.988 L
79.75 75.283 L
81.8 74.794 L
83.654 75.549 L
85.347 76.11 L
88.347 76.94 L
89.689 77.125 L
92.124 77.57 L
94.288 78.422 L
96.235 78.827 L
98.005 78.425 L
100.391 78.705 L
101.833 79.128 L
103.813 79.1 L
106.174 79.823 L
108.28 80.254 L
110.179 81.174 L
112.32 81.68 L
114.248 82.143 L
116.002 82.176 L
118.219 82.404 L
120.208 82.815 L
122.014 83.411 L
124.113 84.008 L
126.007 84.598 L
128.097 85.193 L
130.147 85.766 L
132.149 86.169 L
134.096 86.82 L
136.106 87.611 L
138.036 88.505 L
139.989 89.146 L
142.029 90.033 L
144.035 90.949 L
145.997 91.587 L
147.975 92.638 L
149.947 93.311 L
151.95 94.241 L
153.91 95.136 L
155.907 95.988 L
157.914 96.811 L
159.874 97.676 L
161.878 98.479 L
163.839 99.408 L
165.829 100.241 L
167.822 101.199 L
169.799 102.19 L
171.785 103.19 L
173.778 104.163 L
175.757 105.087 L
177.737 105.965 L
179.725 106.92 L
181.701 107.842 L
183.682 108.688 L
185.668 109.623 L
187.648 110.555 L
189.636 111.492 L
191.619 112.403 L
193.6 113.295 L
195.579 114.249 L
197.563 115.141 L
199.547 116.174 L
201.531 117.143 L
203.511 118.022 L
205.494 118.951 L
207.477 119.82 L
209.459 120.704 L
211.441 121.55 L
213.423 122.344 L
215.406 123.188 L
217.389 124.127 L
219.371 124.966 L
221.352 125.814 L
223.335 126.601 L
225.318 127.405 L
227.3 128.062 L
229.283 128.746 L
231.265 129.478 L
233.247 130.08 L
235.23 130.757 L
237.212 131.436 L
239.195 132.062 L
241.177 132.615 L
243.159 133.184 L
245.141 133.702 L
247.124 134.2 L
249.106 134.707 L
251.088 135.135 L
253.071 135.554 L
255.053 135.942 L
257.035 136.26 L
259.018 136.528 L
261 136.875 L
S
GR
GS
[0.75 0 0 0.75 0 0.25] CT
1 0 0 RC
1 LJ
0.667 LW
N
37 67.104 M
50.486 71.352 L
58.375 71.135 L
63.972 69.722 L
68.314 73.014 L
71.861 71.996 L
74.86 73.181 L
77.458 74.39 L
79.75 74.348 L
81.8 75.479 L
83.654 75.693 L
85.347 76.213 L
88.347 76.424 L
89.689 76.708 L
92.124 77.391 L
94.288 76.882 L
96.235 77.298 L
98.005 78.156 L
100.391 78.265 L
101.833 79.059 L
103.813 78.994 L
106.174 79.191 L
108.28 79.391 L
110.179 79.859 L
112.32 80.291 L
114.248 80.595 L
116.002 81.197 L
118.219 82.076 L
120.208 82.818 L
122.014 83.52 L
124.113 83.772 L
126.007 84.317 L
128.097 84.894 L
130.147 85.786 L
132.149 86.717 L
134.096 87.258 L
136.106 88.041 L
138.036 88.759 L
139.989 89.511 L
142.029 90.42 L
144.035 91.26 L
145.997 92.038 L
147.975 92.765 L
149.947 93.615 L
151.95 94.601 L
153.91 95.405 L
155.907 96.275 L
157.914 97.126 L
159.874 97.952 L
161.878 98.773 L
163.839 99.727 L
165.829 100.508 L
167.822 101.392 L
169.799 102.301 L
171.785 103.195 L
173.778 104.148 L
175.757 105.079 L
177.737 106.042 L
179.725 106.971 L
181.701 107.948 L
183.682 108.958 L
185.668 109.84 L
187.648 110.714 L
189.636 111.624 L
191.619 112.606 L
193.6 113.503 L
195.579 114.429 L
197.563 115.282 L
199.547 116.194 L
201.531 117.08 L
203.511 117.958 L
205.494 118.835 L
207.477 119.722 L
209.459 120.663 L
211.441 121.528 L
213.423 122.338 L
215.406 123.097 L
217.389 123.85 L
219.371 124.656 L
221.352 125.392 L
223.335 126.161 L
225.318 126.977 L
227.3 127.79 L
229.283 128.509 L
231.265 129.209 L
233.247 129.885 L
235.23 130.505 L
237.212 131.189 L
239.195 131.786 L
241.177 132.38 L
243.159 132.995 L
245.141 133.555 L
247.124 134.021 L
249.106 134.505 L
251.088 134.917 L
253.071 135.302 L
255.053 135.729 L
257.035 136.107 L
259.018 136.434 L
261 136.801 L
S
GR
GS
[0.75 0 0 0.75 0 0.25] CT
1 0 0 RC
1 LJ
0.667 LW
N
37 64.732 M
50.486 73.765 L
58.375 70.515 L
63.972 71.131 L
68.314 73.094 L
71.861 71.781 L
74.86 72.769 L
77.458 73.383 L
79.75 72.247 L
81.8 73.361 L
83.654 73.365 L
85.347 74.388 L
88.347 75.466 L
89.689 75.284 L
92.124 75.932 L
94.288 75.985 L
96.235 76.695 L
98.005 76.979 L
100.391 76.566 L
101.833 77.056 L
103.813 77.97 L
106.174 77.767 L
108.28 78.559 L
110.179 78.729 L
112.32 79.019 L
114.248 79.651 L
116.002 80.316 L
118.219 80.79 L
120.208 81.537 L
122.014 81.922 L
124.113 82.96 L
126.007 83.571 L
128.097 84.375 L
130.147 85.221 L
132.149 86.105 L
134.096 86.796 L
136.106 87.261 L
138.036 87.969 L
139.989 88.702 L
142.029 89.628 L
144.035 90.395 L
145.997 91.135 L
147.975 92.121 L
149.947 93.145 L
151.95 94.129 L
153.91 95.047 L
155.907 95.959 L
157.914 96.903 L
159.874 97.958 L
161.878 98.811 L
163.839 99.682 L
165.829 100.646 L
167.822 101.567 L
169.799 102.348 L
171.785 103.129 L
173.778 104.198 L
175.757 105.163 L
177.737 106.046 L
179.725 106.903 L
181.701 107.714 L
183.682 108.619 L
185.668 109.671 L
187.648 110.473 L
189.636 111.41 L
191.619 112.332 L
193.6 113.182 L
195.579 114.079 L
197.563 114.967 L
199.547 115.992 L
201.531 116.989 L
203.511 117.854 L
205.494 118.755 L
207.477 119.59 L
209.459 120.448 L
211.441 121.308 L
213.423 122.186 L
215.406 123.031 L
217.389 123.845 L
219.371 124.628 L
221.352 125.487 L
223.335 126.292 L
225.318 127.054 L
227.3 127.811 L
229.283 128.592 L
231.265 129.285 L
233.247 129.925 L
235.23 130.624 L
237.212 131.253 L
239.195 131.821 L
241.177 132.451 L
243.159 133 L
245.141 133.521 L
247.124 134.031 L
249.106 134.467 L
251.088 134.927 L
253.071 135.384 L
255.053 135.799 L
257.035 136.171 L
259.018 136.482 L
261 136.743 L
S
GR
GS
[0.75 0 0 0.75 0 0.25] CT
1 0 0 RC
1 LJ
0.667 LW
N
37 70.248 M
50.486 69.285 L
58.375 73.525 L
63.972 72.588 L
68.314 74.573 L
71.861 75.034 L
74.86 74.91 L
77.458 75.436 L
79.75 76.136 L
81.8 76.464 L
83.654 76.677 L
85.347 77.593 L
88.347 77.672 L
89.689 77.676 L
92.124 77.363 L
94.288 77.527 L
96.235 77.713 L
98.005 78.337 L
100.391 77.98 L
101.833 77.749 L
103.813 78.428 L
106.174 78.853 L
108.28 79.244 L
110.179 79.756 L
112.32 80.066 L
114.248 80.478 L
116.002 80.968 L
118.219 81.751 L
120.208 81.982 L
122.014 82.868 L
124.113 83.687 L
126.007 84.315 L
128.097 84.98 L
130.147 85.909 L
132.149 86.728 L
134.096 87.558 L
136.106 88.117 L
138.036 88.931 L
139.989 89.586 L
142.029 90.212 L
144.035 91.08 L
145.997 91.699 L
147.975 92.51 L
149.947 93.158 L
151.95 94.093 L
153.91 95.051 L
155.907 95.944 L
157.914 96.844 L
159.874 97.806 L
161.878 98.743 L
163.839 99.634 L
165.829 100.522 L
167.822 101.394 L
169.799 102.183 L
171.785 103.233 L
173.778 104.218 L
175.757 105.145 L
177.737 106.058 L
179.725 107.002 L
181.701 107.941 L
183.682 108.858 L
185.668 109.769 L
187.648 110.688 L
189.636 111.554 L
191.619 112.474 L
193.6 113.431 L
195.579 114.311 L
197.563 115.226 L
199.547 116.117 L
201.531 116.925 L
203.511 117.766 L
205.494 118.652 L
207.477 119.589 L
209.459 120.437 L
211.441 121.326 L
213.423 122.178 L
215.406 123.121 L
217.389 123.893 L
219.371 124.781 L
221.352 125.606 L
223.335 126.32 L
225.318 127.095 L
227.3 127.942 L
229.283 128.693 L
231.265 129.375 L
233.247 129.989 L
235.23 130.697 L
237.212 131.312 L
239.195 131.952 L
241.177 132.492 L
243.159 133.077 L
245.141 133.584 L
247.124 134.097 L
249.106 134.543 L
251.088 134.955 L
253.071 135.398 L
255.053 135.779 L
257.035 136.114 L
259.018 136.455 L
261 136.748 L
S
GR
GS
[0.75 0 0 0.75 0 0.25] CT
1 0 0 RC
1 LJ
0.667 LW
N
37 74.805 M
50.486 77.401 L
58.375 73.002 L
63.972 74.461 L
68.314 74.147 L
71.861 73.178 L
74.86 72.755 L
77.458 72.962 L
79.75 74.647 L
81.8 74.359 L
83.654 75.424 L
85.347 75.605 L
88.347 75.101 L
89.689 75.284 L
92.124 75.183 L
94.288 75.487 L
96.235 76.435 L
98.005 76.433 L
100.391 77.374 L
101.833 77.765 L
103.813 77.827 L
106.174 79.047 L
108.28 79.287 L
110.179 80.073 L
112.32 80.66 L
114.248 80.798 L
116.002 81.083 L
118.219 81.84 L
120.208 82.365 L
122.014 82.861 L
124.113 83.225 L
126.007 84.124 L
128.097 84.88 L
130.147 85.834 L
132.149 86.467 L
134.096 87.208 L
136.106 88.077 L
138.036 88.782 L
139.989 89.495 L
142.029 90.322 L
144.035 91.099 L
145.997 92.016 L
147.975 92.791 L
149.947 93.588 L
151.95 94.471 L
153.91 95.349 L
155.907 96.207 L
157.914 97.117 L
159.874 98.026 L
161.878 98.862 L
163.839 99.722 L
165.829 100.669 L
167.822 101.479 L
169.799 102.481 L
171.785 103.4 L
173.778 104.346 L
175.757 105.226 L
177.737 106.139 L
179.725 107.022 L
181.701 107.916 L
183.682 108.93 L
185.668 109.807 L
187.648 110.696 L
189.636 111.587 L
191.619 112.468 L
193.6 113.331 L
195.579 114.193 L
197.563 115.121 L
199.547 115.948 L
201.531 116.854 L
203.511 117.765 L
205.494 118.645 L
207.477 119.482 L
209.459 120.318 L
211.441 121.196 L
213.423 122.106 L
215.406 122.952 L
217.389 123.765 L
219.371 124.564 L
221.352 125.35 L
223.335 126.146 L
225.318 126.921 L
227.3 127.674 L
229.283 128.378 L
231.265 129.139 L
233.247 129.823 L
235.23 130.538 L
237.212 131.132 L
239.195 131.795 L
241.177 132.429 L
243.159 132.975 L
245.141 133.539 L
247.124 134.062 L
249.106 134.525 L
251.088 134.917 L
253.071 135.328 L
255.053 135.733 L
257.035 136.099 L
259.018 136.418 L
261 136.75 L
S
GR
GS
[0.75 0 0 0.75 0 0.25] CT
0 0 1 RC
[10 6] 0 setdash
2 LJ
0.667 LW
N
37 13.909 M
50.486 20.841 L
58.375 24.384 L
63.972 27.104 L
68.314 29.187 L
71.861 31.194 L
74.86 32.54 L
77.458 33.829 L
79.75 34.737 L
81.8 35.617 L
83.654 36.543 L
85.347 37.444 L
88.347 38.935 L
89.689 39.366 L
92.124 40.367 L
94.288 41.419 L
96.235 42.19 L
98.005 43.02 L
100.391 43.905 L
101.833 44.59 L
103.813 45.443 L
106.174 46.314 L
108.28 47.178 L
110.179 47.931 L
112.32 48.847 L
114.248 49.604 L
116.002 50.286 L
118.219 51.135 L
120.208 51.995 L
122.014 52.705 L
124.113 53.491 L
126.007 54.264 L
128.097 55.158 L
130.147 56.023 L
132.149 56.905 L
134.096 57.713 L
136.106 58.469 L
138.036 59.242 L
139.989 60.123 L
142.029 60.979 L
144.035 61.785 L
145.997 62.608 L
147.975 63.371 L
149.947 64.227 L
151.95 65.043 L
153.91 65.856 L
155.907 66.754 L
157.914 67.598 L
159.874 68.384 L
161.878 69.21 L
163.839 69.994 L
165.829 70.842 L
167.822 71.7 L
169.799 72.529 L
171.785 73.332 L
173.778 74.156 L
175.757 75 L
177.737 75.834 L
179.725 76.642 L
181.701 77.423 L
183.682 78.265 L
185.668 79.098 L
187.648 79.913 L
189.636 80.753 L
191.619 81.566 L
193.6 82.389 L
195.579 83.254 L
197.563 84.112 L
199.547 84.925 L
201.531 85.768 L
203.511 86.597 L
205.494 87.441 L
207.477 88.305 L
209.459 89.155 L
211.441 90.002 L
213.423 90.815 L
215.406 91.661 L
217.389 92.517 L
219.371 93.362 L
221.352 94.196 L
223.335 95.038 L
225.318 95.869 L
227.3 96.718 L
229.283 97.555 L
231.265 98.385 L
233.247 99.2 L
235.23 100.027 L
237.212 100.844 L
239.195 101.663 L
241.177 102.489 L
243.159 103.294 L
245.141 104.12 L
247.124 104.927 L
249.106 105.737 L
251.088 106.53 L
253.071 107.329 L
255.053 108.122 L
257.035 108.912 L
259.018 109.671 L
261 110.444 L
S
GR
GS
[0.75 0 0 0.75 0 0.25] CT
0 0 1 RC
[10 6] 0 setdash
2 LJ
0.667 LW
N
37 13.302 M
50.486 20.494 L
58.375 23.945 L
63.972 26.956 L
68.314 29.198 L
71.861 31.09 L
74.86 32.444 L
77.458 33.771 L
79.75 34.853 L
81.8 35.819 L
83.654 36.749 L
85.347 37.574 L
88.347 38.863 L
89.689 39.59 L
92.124 40.639 L
94.288 41.622 L
96.235 42.416 L
98.005 43.008 L
100.391 44.169 L
101.833 44.71 L
103.813 45.518 L
106.174 46.492 L
108.28 47.405 L
110.179 48.209 L
112.32 49.184 L
114.248 50.035 L
116.002 50.71 L
118.219 51.603 L
120.208 52.468 L
122.014 53.186 L
124.113 54.088 L
126.007 54.85 L
128.097 55.679 L
130.147 56.467 L
132.149 57.205 L
134.096 57.951 L
136.106 58.721 L
138.036 59.597 L
139.989 60.387 L
142.029 61.208 L
144.035 61.926 L
145.997 62.77 L
147.975 63.596 L
149.947 64.438 L
151.95 65.206 L
153.91 65.993 L
155.907 66.884 L
157.914 67.743 L
159.874 68.565 L
161.878 69.384 L
163.839 70.2 L
165.829 71.055 L
167.822 71.819 L
169.799 72.622 L
171.785 73.494 L
173.778 74.337 L
175.757 75.154 L
177.737 75.954 L
179.725 76.762 L
181.701 77.577 L
183.682 78.414 L
185.668 79.185 L
187.648 79.987 L
189.636 80.786 L
191.619 81.632 L
193.6 82.464 L
195.579 83.283 L
197.563 84.098 L
199.547 84.951 L
201.531 85.794 L
203.511 86.654 L
205.494 87.468 L
207.477 88.328 L
209.459 89.172 L
211.441 89.986 L
213.423 90.833 L
215.406 91.68 L
217.389 92.532 L
219.371 93.375 L
221.352 94.199 L
223.335 95.028 L
225.318 95.859 L
227.3 96.702 L
229.283 97.54 L
231.265 98.372 L
233.247 99.201 L
235.23 100.028 L
237.212 100.849 L
239.195 101.687 L
241.177 102.51 L
243.159 103.325 L
245.141 104.131 L
247.124 104.939 L
249.106 105.745 L
251.088 106.543 L
253.071 107.341 L
255.053 108.12 L
257.035 108.896 L
259.018 109.683 L
261 110.458 L
S
GR
GS
[0.75 0 0 0.75 0 0.25] CT
0 0 1 RC
[10 6] 0 setdash
2 LJ
0.667 LW
N
37 14.087 M
50.486 21.162 L
58.375 24.877 L
63.972 27.927 L
68.314 29.73 L
71.861 31.238 L
74.86 32.735 L
77.458 34.138 L
79.75 35.005 L
81.8 36.188 L
83.654 36.926 L
85.347 37.785 L
88.347 39.235 L
89.689 40.012 L
92.124 40.88 L
94.288 41.952 L
96.235 42.713 L
98.005 43.46 L
100.391 44.478 L
101.833 45.126 L
103.813 45.874 L
106.174 47.026 L
108.28 47.883 L
110.179 48.607 L
112.32 49.489 L
114.248 50.298 L
116.002 50.978 L
118.219 51.796 L
120.208 52.656 L
122.014 53.364 L
124.113 54.304 L
126.007 55.019 L
128.097 55.931 L
130.147 56.719 L
132.149 57.512 L
134.096 58.279 L
136.106 59.02 L
138.036 59.843 L
139.989 60.736 L
142.029 61.564 L
144.035 62.313 L
145.997 63.09 L
147.975 63.92 L
149.947 64.738 L
151.95 65.605 L
153.91 66.376 L
155.907 67.203 L
157.914 68.045 L
159.874 68.834 L
161.878 69.707 L
163.839 70.527 L
165.829 71.327 L
167.822 72.105 L
169.799 72.928 L
171.785 73.706 L
173.778 74.492 L
175.757 75.282 L
177.737 76.102 L
179.725 76.871 L
181.701 77.745 L
183.682 78.57 L
185.668 79.391 L
187.648 80.194 L
189.636 81.009 L
191.619 81.825 L
193.6 82.655 L
195.579 83.465 L
197.563 84.275 L
199.547 85.105 L
201.531 85.933 L
203.511 86.769 L
205.494 87.611 L
207.477 88.421 L
209.459 89.262 L
211.441 90.109 L
213.423 90.957 L
215.406 91.801 L
217.389 92.632 L
219.371 93.482 L
221.352 94.292 L
223.335 95.127 L
225.318 95.955 L
227.3 96.787 L
229.283 97.613 L
231.265 98.452 L
233.247 99.272 L
235.23 100.09 L
237.212 100.894 L
239.195 101.701 L
241.177 102.508 L
243.159 103.341 L
245.141 104.16 L
247.124 104.96 L
249.106 105.765 L
251.088 106.563 L
253.071 107.342 L
255.053 108.132 L
257.035 108.914 L
259.018 109.683 L
261 110.47 L
S
GR
GS
[0.75 0 0 0.75 0 0.25] CT
0 0 1 RC
[10 6] 0 setdash
2 LJ
0.667 LW
N
37 13 M
50.486 20.299 L
58.375 24.688 L
63.972 27.141 L
68.314 29.077 L
71.861 30.918 L
74.86 32.601 L
77.458 33.669 L
79.75 34.873 L
81.8 35.867 L
83.654 36.772 L
85.347 37.546 L
88.347 38.917 L
89.689 39.453 L
92.124 40.722 L
94.288 41.728 L
96.235 42.747 L
98.005 43.478 L
100.391 44.513 L
101.833 44.874 L
103.813 45.857 L
106.174 46.867 L
108.28 47.777 L
110.179 48.552 L
112.32 49.386 L
114.248 50.225 L
116.002 50.813 L
118.219 51.806 L
120.208 52.584 L
122.014 53.185 L
124.113 54.065 L
126.007 54.814 L
128.097 55.662 L
130.147 56.466 L
132.149 57.242 L
134.096 57.974 L
136.106 58.786 L
138.036 59.546 L
139.989 60.3 L
142.029 61.176 L
144.035 61.921 L
145.997 62.801 L
147.975 63.581 L
149.947 64.398 L
151.95 65.222 L
153.91 65.954 L
155.907 66.84 L
157.914 67.681 L
159.874 68.547 L
161.878 69.404 L
163.839 70.183 L
165.829 71.014 L
167.822 71.809 L
169.799 72.611 L
171.785 73.414 L
173.778 74.231 L
175.757 75.031 L
177.737 75.876 L
179.725 76.722 L
181.701 77.537 L
183.682 78.388 L
185.668 79.216 L
187.648 80.047 L
189.636 80.864 L
191.619 81.691 L
193.6 82.504 L
195.579 83.321 L
197.563 84.143 L
199.547 84.987 L
201.531 85.846 L
203.511 86.664 L
205.494 87.511 L
207.477 88.34 L
209.459 89.185 L
211.441 90.038 L
213.423 90.868 L
215.406 91.696 L
217.389 92.541 L
219.371 93.412 L
221.352 94.243 L
223.335 95.092 L
225.318 95.92 L
227.3 96.727 L
229.283 97.559 L
231.265 98.381 L
233.247 99.203 L
235.23 100.024 L
237.212 100.846 L
239.195 101.659 L
241.177 102.48 L
243.159 103.284 L
245.141 104.104 L
247.124 104.924 L
249.106 105.735 L
251.088 106.531 L
253.071 107.327 L
255.053 108.108 L
257.035 108.902 L
259.018 109.685 L
261 110.462 L
S
GR
GS
[0.75 0 0 0.75 0 0.25] CT
0 0 1 RC
[10 6] 0 setdash
2 LJ
0.667 LW
N
37 14.528 M
50.486 21.415 L
58.375 25.399 L
63.972 27.896 L
68.314 30.256 L
71.861 31.659 L
74.86 33.051 L
77.458 34.391 L
79.75 35.222 L
81.8 36.283 L
83.654 36.962 L
85.347 37.773 L
88.347 39.288 L
89.689 39.884 L
92.124 40.944 L
94.288 41.988 L
96.235 42.671 L
98.005 43.438 L
100.391 44.477 L
101.833 44.907 L
103.813 45.835 L
106.174 46.823 L
108.28 47.792 L
110.179 48.467 L
112.32 49.447 L
114.248 50.206 L
116.002 51.038 L
118.219 51.866 L
120.208 52.619 L
122.014 53.314 L
124.113 54.157 L
126.007 55.002 L
128.097 55.885 L
130.147 56.756 L
132.149 57.605 L
134.096 58.315 L
136.106 59.162 L
138.036 59.909 L
139.989 60.725 L
142.029 61.558 L
144.035 62.382 L
145.997 63.172 L
147.975 63.903 L
149.947 64.712 L
151.95 65.524 L
153.91 66.333 L
155.907 67.153 L
157.914 67.913 L
159.874 68.692 L
161.878 69.51 L
163.839 70.28 L
165.829 71.033 L
167.822 71.823 L
169.799 72.629 L
171.785 73.423 L
173.778 74.262 L
175.757 75.109 L
177.737 75.941 L
179.725 76.807 L
181.701 77.657 L
183.682 78.506 L
185.668 79.336 L
187.648 80.191 L
189.636 81.001 L
191.619 81.83 L
193.6 82.663 L
195.579 83.487 L
197.563 84.305 L
199.547 85.131 L
201.531 85.945 L
203.511 86.773 L
205.494 87.62 L
207.477 88.441 L
209.459 89.27 L
211.441 90.09 L
213.423 90.932 L
215.406 91.767 L
217.389 92.608 L
219.371 93.443 L
221.352 94.289 L
223.335 95.13 L
225.318 95.958 L
227.3 96.811 L
229.283 97.627 L
231.265 98.462 L
233.247 99.285 L
235.23 100.102 L
237.212 100.913 L
239.195 101.744 L
241.177 102.556 L
243.159 103.374 L
245.141 104.178 L
247.124 104.997 L
249.106 105.811 L
251.088 106.621 L
253.071 107.417 L
255.053 108.21 L
257.035 109.005 L
259.018 109.768 L
261 110.528 L
S
GR
GS
[0.75 0 0 0.75 0 0.25] CT
0 0 1 RC
[10 6] 0 setdash
2 LJ
0.667 LW
N
37 14.84 M
50.486 21.444 L
58.375 25.33 L
63.972 27.829 L
68.314 29.961 L
71.861 31.703 L
74.86 32.911 L
77.458 34.152 L
79.75 35.209 L
81.8 36.008 L
83.654 36.944 L
85.347 37.772 L
88.347 39.202 L
89.689 39.792 L
92.124 40.882 L
94.288 41.942 L
96.235 42.824 L
98.005 43.424 L
100.391 44.426 L
101.833 45.086 L
103.813 45.825 L
106.174 46.899 L
108.28 47.789 L
110.179 48.727 L
112.32 49.622 L
114.248 50.433 L
116.002 51.03 L
118.219 51.817 L
120.208 52.588 L
122.014 53.341 L
124.113 54.186 L
126.007 54.97 L
128.097 55.794 L
130.147 56.575 L
132.149 57.289 L
134.096 58.058 L
136.106 58.881 L
138.036 59.725 L
139.989 60.466 L
142.029 61.333 L
144.035 62.201 L
145.997 62.94 L
147.975 63.835 L
149.947 64.58 L
151.95 65.427 L
153.91 66.23 L
155.907 67.046 L
157.914 67.855 L
159.874 68.655 L
161.878 69.44 L
163.839 70.263 L
165.829 71.021 L
167.822 71.859 L
169.799 72.701 L
171.785 73.538 L
173.778 74.36 L
175.757 75.178 L
177.737 75.977 L
179.725 76.815 L
181.701 77.614 L
183.682 78.43 L
185.668 79.256 L
187.648 80.078 L
189.636 80.901 L
191.619 81.729 L
193.6 82.542 L
195.579 83.386 L
197.563 84.2 L
199.547 85.07 L
201.531 85.913 L
203.511 86.758 L
205.494 87.591 L
207.477 88.432 L
209.459 89.267 L
211.441 90.091 L
213.423 90.909 L
215.406 91.754 L
217.389 92.613 L
219.371 93.461 L
221.352 94.304 L
223.335 95.135 L
225.318 95.981 L
227.3 96.785 L
229.283 97.605 L
231.265 98.439 L
233.247 99.243 L
235.23 100.071 L
237.212 100.91 L
239.195 101.732 L
241.177 102.546 L
243.159 103.373 L
245.141 104.179 L
247.124 104.984 L
249.106 105.797 L
251.088 106.592 L
253.071 107.386 L
255.053 108.176 L
257.035 108.949 L
259.018 109.707 L
261 110.488 L
S
GR
GS
[0.75 0 0 0.75 0 0.25] CT
0 0 1 RC
[10 6] 0 setdash
2 LJ
0.667 LW
N
37 13.851 M
50.486 20.992 L
58.375 24.791 L
63.972 27.207 L
68.314 29.712 L
71.861 31.162 L
74.86 32.695 L
77.458 34.051 L
79.75 35.044 L
81.8 36.141 L
83.654 36.976 L
85.347 37.793 L
88.347 39.1 L
89.689 39.708 L
92.124 40.843 L
94.288 41.593 L
96.235 42.452 L
98.005 43.357 L
100.391 44.302 L
101.833 45.058 L
103.813 45.78 L
106.174 46.695 L
108.28 47.496 L
110.179 48.286 L
112.32 49.147 L
114.248 49.887 L
116.002 50.649 L
118.219 51.66 L
120.208 52.55 L
122.014 53.348 L
124.113 54.08 L
126.007 54.847 L
128.097 55.653 L
130.147 56.56 L
132.149 57.485 L
134.096 58.203 L
136.106 59.043 L
138.036 59.824 L
139.989 60.602 L
142.029 61.467 L
144.035 62.281 L
145.997 63.061 L
147.975 63.84 L
149.947 64.643 L
151.95 65.528 L
153.91 66.29 L
155.907 67.115 L
157.914 67.903 L
159.874 68.675 L
161.878 69.482 L
163.839 70.311 L
165.829 71.068 L
167.822 71.872 L
169.799 72.686 L
171.785 73.506 L
173.778 74.323 L
175.757 75.149 L
177.737 75.971 L
179.725 76.807 L
181.701 77.63 L
183.682 78.493 L
185.668 79.311 L
187.648 80.113 L
189.636 80.938 L
191.619 81.791 L
193.6 82.634 L
195.579 83.462 L
197.563 84.265 L
199.547 85.099 L
201.531 85.92 L
203.511 86.764 L
205.494 87.593 L
207.477 88.43 L
209.459 89.279 L
211.441 90.116 L
213.423 90.942 L
215.406 91.754 L
217.389 92.578 L
219.371 93.409 L
221.352 94.23 L
223.335 95.059 L
225.318 95.899 L
227.3 96.743 L
229.283 97.561 L
231.265 98.388 L
233.247 99.218 L
235.23 100.036 L
237.212 100.874 L
239.195 101.691 L
241.177 102.5 L
243.159 103.327 L
245.141 104.149 L
247.124 104.951 L
249.106 105.749 L
251.088 106.54 L
253.071 107.326 L
255.053 108.122 L
257.035 108.91 L
259.018 109.686 L
261 110.475 L
S
GR
GS
[0.75 0 0 0.75 0 0.25] CT
0 0 1 RC
[10 6] 0 setdash
2 LJ
0.667 LW
N
37 13.63 M
50.486 21.235 L
58.375 24.728 L
63.972 27.436 L
68.314 29.728 L
71.861 31.13 L
74.86 32.628 L
77.458 33.879 L
79.75 34.648 L
81.8 35.738 L
83.654 36.513 L
85.347 37.436 L
88.347 38.907 L
89.689 39.411 L
92.124 40.527 L
94.288 41.39 L
96.235 42.323 L
98.005 43.08 L
100.391 43.873 L
101.833 44.537 L
103.813 45.531 L
106.174 46.315 L
108.28 47.291 L
110.179 47.986 L
112.32 48.781 L
114.248 49.604 L
116.002 50.387 L
118.219 51.239 L
120.208 52.112 L
122.014 52.78 L
124.113 53.77 L
126.007 54.528 L
128.097 55.414 L
130.147 56.328 L
132.149 57.214 L
134.096 57.995 L
136.106 58.695 L
138.036 59.469 L
139.989 60.249 L
142.029 61.125 L
144.035 61.925 L
145.997 62.685 L
147.975 63.554 L
149.947 64.468 L
151.95 65.361 L
153.91 66.178 L
155.907 67.007 L
157.914 67.834 L
159.874 68.697 L
161.878 69.483 L
163.839 70.254 L
165.829 71.088 L
167.822 71.902 L
169.799 72.663 L
171.785 73.446 L
173.778 74.332 L
175.757 75.154 L
177.737 75.967 L
179.725 76.761 L
181.701 77.562 L
183.682 78.38 L
185.668 79.245 L
187.648 80.034 L
189.636 80.867 L
191.619 81.691 L
193.6 82.514 L
195.579 83.346 L
197.563 84.166 L
199.547 85.029 L
201.531 85.896 L
203.511 86.731 L
205.494 87.559 L
207.477 88.377 L
209.459 89.209 L
211.441 90.05 L
213.423 90.884 L
215.406 91.728 L
217.389 92.554 L
219.371 93.389 L
221.352 94.238 L
223.335 95.076 L
225.318 95.912 L
227.3 96.743 L
229.283 97.593 L
231.265 98.414 L
233.247 99.226 L
235.23 100.051 L
237.212 100.874 L
239.195 101.687 L
241.177 102.509 L
243.159 103.316 L
245.141 104.13 L
247.124 104.933 L
249.106 105.726 L
251.088 106.527 L
253.071 107.332 L
255.053 108.127 L
257.035 108.915 L
259.018 109.686 L
261 110.445 L
S
GR
GS
[0.75 0 0 0.75 0 0.25] CT
0 0 1 RC
[10 6] 0 setdash
2 LJ
0.667 LW
N
37 14.101 M
50.486 20.765 L
58.375 25.072 L
63.972 27.623 L
68.314 29.921 L
71.861 31.628 L
74.86 32.969 L
77.458 34.216 L
79.75 35.348 L
81.8 36.298 L
83.654 37.135 L
85.347 38.035 L
88.347 39.325 L
89.689 39.887 L
92.124 40.82 L
94.288 41.726 L
96.235 42.554 L
98.005 43.394 L
100.391 44.216 L
101.833 44.69 L
103.813 45.598 L
106.174 46.566 L
108.28 47.418 L
110.179 48.233 L
112.32 49.079 L
114.248 49.84 L
116.002 50.559 L
118.219 51.521 L
120.208 52.216 L
122.014 53.075 L
124.113 53.999 L
126.007 54.8 L
128.097 55.637 L
130.147 56.569 L
132.149 57.429 L
134.096 58.29 L
136.106 59.034 L
138.036 59.845 L
139.989 60.595 L
142.029 61.343 L
144.035 62.189 L
145.997 62.906 L
147.975 63.695 L
149.947 64.434 L
151.95 65.256 L
153.91 66.084 L
155.907 66.888 L
157.914 67.692 L
159.874 68.531 L
161.878 69.36 L
163.839 70.171 L
165.829 70.973 L
167.822 71.77 L
169.799 72.547 L
171.785 73.434 L
173.778 74.273 L
175.757 75.088 L
177.737 75.908 L
179.725 76.722 L
181.701 77.551 L
183.682 78.357 L
185.668 79.188 L
187.648 80.034 L
189.636 80.841 L
191.619 81.672 L
193.6 82.525 L
195.579 83.355 L
197.563 84.182 L
199.547 85.02 L
201.531 85.815 L
203.511 86.652 L
205.494 87.483 L
207.477 88.339 L
209.459 89.163 L
211.441 89.993 L
213.423 90.838 L
215.406 91.688 L
217.389 92.512 L
219.371 93.364 L
221.352 94.21 L
223.335 95.031 L
225.318 95.87 L
227.3 96.722 L
229.283 97.55 L
231.265 98.379 L
233.247 99.189 L
235.23 100.025 L
237.212 100.852 L
239.195 101.681 L
241.177 102.493 L
243.159 103.315 L
245.141 104.124 L
247.124 104.935 L
249.106 105.737 L
251.088 106.528 L
253.071 107.329 L
255.053 108.117 L
257.035 108.893 L
259.018 109.674 L
261 110.445 L
S
GR
GS
[0.75 0 0 0.75 0 0.25] CT
0 0 1 RC
[10 6] 0 setdash
2 LJ
0.667 LW
N
37 14.416 M
50.486 21.538 L
58.375 25.031 L
63.972 27.88 L
68.314 29.876 L
71.861 31.348 L
74.86 32.608 L
77.458 33.775 L
79.75 35.093 L
81.8 35.92 L
83.654 36.917 L
85.347 37.666 L
88.347 38.802 L
89.689 39.386 L
92.124 40.342 L
94.288 41.258 L
96.235 42.249 L
98.005 42.92 L
100.391 44.076 L
101.833 44.727 L
103.813 45.472 L
106.174 46.686 L
108.28 47.494 L
110.179 48.4 L
112.32 49.32 L
114.248 50.015 L
116.002 50.684 L
118.219 51.651 L
120.208 52.438 L
122.014 53.161 L
124.113 53.919 L
126.007 54.806 L
128.097 55.685 L
130.147 56.616 L
132.149 57.404 L
134.096 58.209 L
136.106 59.066 L
138.036 59.836 L
139.989 60.606 L
142.029 61.433 L
144.035 62.234 L
145.997 63.087 L
147.975 63.86 L
149.947 64.644 L
151.95 65.474 L
153.91 66.276 L
155.907 67.065 L
157.914 67.874 L
159.874 68.674 L
161.878 69.468 L
163.839 70.259 L
165.829 71.088 L
167.822 71.866 L
169.799 72.729 L
171.785 73.546 L
173.778 74.368 L
175.757 75.169 L
177.737 75.968 L
179.725 76.771 L
181.701 77.59 L
183.682 78.444 L
185.668 79.237 L
187.648 80.046 L
189.636 80.882 L
191.619 81.702 L
193.6 82.518 L
195.579 83.336 L
197.563 84.2 L
199.547 85.004 L
201.531 85.84 L
203.511 86.682 L
205.494 87.519 L
207.477 88.356 L
209.459 89.19 L
211.441 90.016 L
213.423 90.875 L
215.406 91.692 L
217.389 92.525 L
219.371 93.354 L
221.352 94.183 L
223.335 95.027 L
225.318 95.866 L
227.3 96.696 L
229.283 97.526 L
231.265 98.362 L
233.247 99.185 L
235.23 100.018 L
237.212 100.831 L
239.195 101.661 L
241.177 102.495 L
243.159 103.311 L
245.141 104.13 L
247.124 104.943 L
249.106 105.749 L
251.088 106.534 L
253.071 107.322 L
255.053 108.114 L
257.035 108.899 L
259.018 109.674 L
261 110.454 L
S
GR
GS
[0.75 0 0 0.75 0 0.25] CT
1 GC
N
252 51 M
252 20 L
129 20 L
129 51 L
cp
f
GR
GS
[0.75 0 0 0.75 132.00182 21.71523] CT
N
0.469 2.995 M
0.375 2.995 0.375 2.87 QT
0.375 2.839 0.391 2.776 QT
0.406 2.714 0.43 2.675 QT
0.453 2.635 0.5 2.635 QT
1.109 2.635 1.344 2.573 QT
1.484 2.526 1.531 2.307 QT
2.906 -3.193 L
2.938 -3.286 2.938 -3.318 QT
2.938 -3.427 2.813 -3.443 QT
2.625 -3.49 2.094 -3.49 QT
2 -3.49 2 -3.615 QT
2 -3.646 2.016 -3.708 QT
2.031 -3.771 2.055 -3.802 QT
2.078 -3.833 2.125 -3.833 QT
7.547 -3.833 L
7.641 -3.833 7.641 -3.708 QT
7.406 -1.63 L
7.406 -1.615 7.367 -1.583 QT
7.328 -1.552 7.297 -1.552 QT
7.219 -1.552 L
7.109 -1.552 7.109 -1.677 QT
7.172 -2.161 7.172 -2.396 QT
7.172 -2.802 7.031 -3.021 QT
6.891 -3.24 6.664 -3.341 QT
6.438 -3.443 6.164 -3.466 QT
5.891 -3.49 5.438 -3.49 QT
4.297 -3.49 L
4.031 -3.49 3.945 -3.443 QT
3.859 -3.396 3.781 -3.146 QT
3.172 -0.724 L
3.953 -0.724 L
4.469 -0.724 4.727 -0.794 QT
4.984 -0.865 5.133 -1.091 QT
5.281 -1.318 5.406 -1.802 QT
5.422 -1.833 5.445 -1.865 QT
5.469 -1.896 5.516 -1.896 QT
5.594 -1.896 L
5.703 -1.896 5.703 -1.771 QT
5.078 0.698 L
5.063 0.792 4.984 0.792 QT
4.891 0.792 L
4.797 0.792 4.797 0.667 QT
4.891 0.26 4.891 0.073 QT
4.891 -0.224 4.625 -0.302 QT
4.359 -0.38 3.922 -0.38 QT
3.094 -0.38 L
2.406 2.339 L
2.375 2.464 2.375 2.557 QT
2.375 2.635 2.703 2.635 QT
3.922 2.635 L
4.641 2.635 5.094 2.526 QT
5.547 2.417 5.844 2.175 QT
6.141 1.932 6.352 1.55 QT
6.563 1.167 6.875 0.432 QT
6.891 0.37 6.953 0.37 QT
7.047 0.37 L
7.094 0.37 7.125 0.409 QT
7.156 0.448 7.156 0.479 QT
7.156 0.51 7.141 0.526 QT
6.109 2.932 L
6.094 2.995 6.031 2.995 QT
0.469 2.995 L
cp
f
GR
GS
[0.75 0 0 0.75 132.00182 21.71523] CT
N
8.655 4.603 M
8.342 4.603 8.147 4.369 QT
7.951 4.134 7.881 3.806 QT
7.811 3.478 7.811 3.165 QT
7.811 3.15 L
7.811 2.806 7.873 2.431 QT
7.936 2.056 8.069 1.681 QT
8.201 1.306 8.342 1.009 QT
8.451 0.806 8.608 0.556 QT
8.764 0.306 8.967 0.079 QT
9.17 -0.147 9.405 -0.28 QT
9.639 -0.413 9.873 -0.413 QT
9.873 -0.413 L
10.123 -0.413 10.295 -0.272 QT
10.467 -0.131 10.561 0.087 QT
10.655 0.306 10.694 0.556 QT
10.733 0.806 10.733 1.025 QT
10.733 1.556 10.584 2.111 QT
10.436 2.665 10.186 3.181 QT
10.092 3.369 9.92 3.634 QT
9.748 3.9 9.561 4.111 QT
9.373 4.322 9.139 4.462 QT
8.905 4.603 8.67 4.603 QT
8.655 4.603 L
cp
8.67 4.415 M
8.905 4.415 9.116 4.165 QT
9.326 3.915 9.491 3.564 QT
9.655 3.212 9.772 2.845 QT
9.889 2.478 9.951 2.212 QT
8.53 2.212 L
8.42 2.65 8.358 2.97 QT
8.295 3.29 8.295 3.603 QT
8.295 4.415 8.67 4.415 QT
cp
8.576 1.962 M
10.014 1.962 L
10.092 1.665 10.139 1.454 QT
10.186 1.244 10.209 1.017 QT
10.233 0.79 10.233 0.587 QT
10.233 -0.225 9.873 -0.225 QT
9.42 -0.225 9.1 0.486 QT
8.78 1.197 8.576 1.962 QT
cp
f
GR
GS
[0.75 0 0 0.75 132.00182 21.71523] CT
N
11.564 3.587 M
11.486 3.587 11.47 3.415 QT
11.47 3.369 L
11.47 2.837 11.798 2.392 QT
12.127 1.947 12.642 1.947 QT
12.955 1.947 13.22 2.111 QT
13.486 2.275 13.838 2.595 QT
14.189 2.915 14.423 3.056 QT
14.658 3.197 14.97 3.197 QT
15.236 3.197 15.455 3.048 QT
15.673 2.9 15.798 2.65 QT
15.923 2.4 15.923 2.134 QT
15.955 1.947 16.033 1.947 QT
16.111 1.947 16.127 2.134 QT
16.127 2.165 L
16.127 2.509 15.986 2.845 QT
15.845 3.181 15.58 3.384 QT
15.314 3.587 14.97 3.587 QT
14.642 3.587 14.392 3.439 QT
14.142 3.29 13.791 2.978 QT
13.439 2.665 13.189 2.509 QT
12.939 2.353 12.642 2.353 QT
12.361 2.353 12.142 2.501 QT
11.923 2.65 11.798 2.9 QT
11.673 3.15 11.673 3.415 QT
11.642 3.587 11.564 3.587 QT
cp
f
GR
GS
[0.75 0 0 0.75 132.00182 21.71523] CT
N
16.821 5.837 M
16.821 5.806 16.836 5.79 QT
17.524 2.994 L
17.633 2.619 17.875 2.259 QT
18.117 1.9 18.453 1.665 QT
18.789 1.431 19.18 1.431 QT
19.477 1.431 19.703 1.587 QT
19.93 1.744 20.047 2.001 QT
20.164 2.259 20.164 2.572 QT
20.164 2.915 20.024 3.275 QT
19.883 3.634 19.641 3.939 QT
19.399 4.244 19.078 4.423 QT
18.758 4.603 18.414 4.603 QT
18.211 4.603 18.024 4.478 QT
17.836 4.353 17.742 4.165 QT
17.321 5.806 L
17.305 5.915 17.227 5.978 QT
17.149 6.04 17.039 6.04 QT
16.961 6.04 16.891 5.986 QT
16.821 5.931 16.821 5.837 QT
cp
18.43 4.415 M
18.789 4.415 19.071 4.033 QT
19.352 3.65 19.492 3.142 QT
19.633 2.634 19.633 2.275 QT
19.633 2.009 19.516 1.814 QT
19.399 1.619 19.164 1.619 QT
18.852 1.619 18.617 1.845 QT
18.383 2.072 18.25 2.384 QT
18.117 2.697 18.024 3.04 QT
17.836 3.822 L
17.867 4.072 18.024 4.244 QT
18.18 4.415 18.43 4.415 QT
cp
f
GR
GS
[0.75 0 0 0.75 132.00182 21.71523] CT
N
24.563 -4.959 M
24.375 -5.177 L
25.719 -6.521 L
27.063 -5.177 L
26.859 -4.959 L
25.719 -5.959 L
24.563 -4.959 L
cp
f
GR
GS
[0.75 0 0 0.75 132.00182 21.71523] CT
N
21.21 3.214 M
21.147 3.214 21.147 3.151 QT
21.147 3.104 21.178 3.057 QT
21.256 2.932 21.397 2.792 QT
21.538 2.651 21.6 2.557 QT
21.866 2.198 22.006 1.917 QT
22.256 1.385 22.444 0.698 QT
22.725 -0.38 22.944 -1.06 QT
23.163 -1.74 23.522 -2.349 QT
23.803 -2.818 24.217 -3.208 QT
24.631 -3.599 25.139 -3.825 QT
25.647 -4.052 26.178 -4.052 QT
26.241 -4.052 L
26.491 -4.052 26.67 -3.927 QT
26.85 -3.802 26.936 -3.583 QT
27.022 -3.365 27.022 -3.115 QT
27.022 -2.74 26.897 -2.583 QT
26.553 -2.208 26.085 -2.146 QT
26.022 -2.146 L
25.96 -2.146 25.96 -2.208 QT
25.96 -2.224 25.991 -2.365 QT
26.022 -2.505 26.022 -2.599 QT
26.022 -2.927 25.858 -3.169 QT
25.694 -3.411 25.381 -3.411 QT
25.006 -3.411 25.006 -3.349 QT
24.725 -3.146 24.475 -2.708 QT
24.225 -2.271 24.038 -1.755 QT
23.85 -1.24 23.702 -0.716 QT
23.553 -0.193 23.444 0.26 QT
23.319 0.745 23.131 1.198 QT
22.944 1.651 22.678 2.057 QT
22.788 2.01 22.96 2.01 QT
23.022 2.01 L
23.381 2.01 23.725 2.081 QT
24.069 2.151 24.553 2.292 QT
25.038 2.432 25.358 2.495 QT
25.678 2.557 26.038 2.557 QT
26.147 2.557 26.21 2.464 QT
26.272 2.37 26.342 2.198 QT
26.413 2.026 26.46 1.964 QT
26.6 1.792 26.827 1.675 QT
27.053 1.557 27.272 1.526 QT
27.319 1.526 L
27.35 1.526 27.374 1.542 QT
27.397 1.557 27.397 1.589 QT
27.397 1.589 27.381 1.62 QT
27.288 2.01 26.928 2.393 QT
26.569 2.776 26.108 2.995 QT
25.647 3.214 25.256 3.214 QT
25.194 3.214 L
24.85 3.214 24.514 3.151 QT
24.178 3.089 23.702 2.948 QT
23.225 2.807 22.874 2.737 QT
22.522 2.667 22.178 2.667 QT
21.741 3.151 21.272 3.214 QT
21.21 3.214 L
cp
f
GR
GS
[0.75 0 0 0.75 132.00182 21.71523] CT
N
28.198 4.525 M
28.135 4.525 28.135 4.431 QT
28.135 4.415 28.143 4.376 QT
28.151 4.337 28.174 4.306 QT
28.198 4.275 28.214 4.275 QT
28.885 4.275 28.995 3.853 QT
29.948 0.025 L
29.76 -0.006 29.339 -0.006 QT
29.26 -0.006 29.26 -0.1 QT
29.26 -0.116 29.276 -0.163 QT
29.292 -0.21 29.307 -0.233 QT
29.323 -0.256 29.354 -0.256 QT
30.557 -0.256 L
30.62 -0.256 30.635 -0.21 QT
32.182 3.494 L
32.964 0.384 L
32.979 0.306 32.979 0.29 QT
32.979 -0.006 32.432 -0.006 QT
32.37 -0.006 32.37 -0.1 QT
32.385 -0.194 32.401 -0.225 QT
32.417 -0.256 32.479 -0.256 QT
33.979 -0.256 L
34.057 -0.256 34.057 -0.163 QT
34.042 -0.147 34.034 -0.108 QT
34.026 -0.069 34.01 -0.038 QT
33.995 -0.006 33.964 -0.006 QT
33.292 -0.006 33.182 0.415 QT
32.182 4.462 L
32.151 4.525 32.104 4.525 QT
32.026 4.525 L
31.979 4.525 31.964 4.478 QT
30.167 0.244 L
30.167 0.197 L
30.151 0.181 30.151 0.181 QT
29.214 3.884 L
29.214 3.9 29.214 3.923 QT
29.214 3.947 29.198 3.978 QT
29.198 4.165 29.354 4.22 QT
29.51 4.275 29.745 4.275 QT
29.807 4.275 29.807 4.369 QT
29.792 4.462 29.776 4.494 QT
29.76 4.525 29.698 4.525 QT
28.198 4.525 L
cp
f
GR
GS
[0.75 0 0 0.75 132.00182 21.71523] CT
N
37.989 5.479 M
37.442 5.042 37.036 4.471 QT
36.629 3.901 36.372 3.253 QT
36.114 2.604 35.989 1.901 QT
35.864 1.198 35.864 0.495 QT
35.864 -0.224 35.989 -0.927 QT
36.114 -1.63 36.379 -2.279 QT
36.645 -2.927 37.051 -3.497 QT
37.457 -4.068 37.989 -4.49 QT
37.989 -4.505 38.051 -4.505 QT
38.145 -4.505 L
38.161 -4.505 38.192 -4.482 QT
38.223 -4.458 38.223 -4.411 QT
38.223 -4.38 38.192 -4.349 QT
37.707 -3.88 37.379 -3.333 QT
37.051 -2.786 36.856 -2.169 QT
36.661 -1.552 36.575 -0.888 QT
36.489 -0.224 36.489 0.495 QT
36.489 3.667 38.192 5.323 QT
38.223 5.354 38.223 5.401 QT
38.223 5.432 38.192 5.464 QT
38.161 5.495 38.145 5.495 QT
38.051 5.495 L
37.989 5.495 37.989 5.479 QT
cp
f
GR
GS
[0.75 0 0 0.75 132.00182 21.71523] CT
N
40.471 3.104 M
40.018 3.104 39.744 2.776 QT
39.471 2.448 39.369 1.979 QT
39.268 1.51 39.268 1.042 QT
39.268 1.042 L
39.268 0.542 39.362 0.003 QT
39.455 -0.536 39.635 -1.068 QT
39.815 -1.599 40.018 -2.021 QT
40.174 -2.318 40.401 -2.677 QT
40.627 -3.036 40.916 -3.357 QT
41.205 -3.677 41.534 -3.865 QT
41.862 -4.052 42.205 -4.052 QT
42.205 -4.052 L
42.58 -4.052 42.815 -3.857 QT
43.049 -3.661 43.19 -3.349 QT
43.33 -3.036 43.385 -2.677 QT
43.44 -2.318 43.44 -1.99 QT
43.44 -1.24 43.229 -0.45 QT
43.018 0.339 42.659 1.073 QT
42.518 1.354 42.276 1.729 QT
42.034 2.104 41.768 2.401 QT
41.502 2.698 41.166 2.901 QT
40.83 3.104 40.487 3.104 QT
40.471 3.104 L
cp
40.487 2.839 M
40.83 2.839 41.135 2.487 QT
41.44 2.135 41.666 1.628 QT
41.893 1.12 42.065 0.589 QT
42.237 0.057 42.33 -0.302 QT
40.284 -0.302 L
40.127 0.323 40.041 0.776 QT
39.955 1.229 39.955 1.682 QT
39.955 2.839 40.487 2.839 QT
cp
40.362 -0.661 M
42.409 -0.661 L
42.518 -1.099 42.58 -1.396 QT
42.643 -1.693 42.69 -2.021 QT
42.737 -2.349 42.737 -2.63 QT
42.737 -3.802 42.205 -3.802 QT
41.565 -3.802 41.104 -2.779 QT
40.643 -1.755 40.362 -0.661 QT
cp
f
GR
GS
[0.75 0 0 0.75 132.00182 21.71523] CT
N
44.59 5.495 M
44.496 5.495 44.496 5.401 QT
44.496 5.37 44.511 5.339 QT
46.23 3.667 46.23 0.495 QT
46.23 -2.677 44.527 -4.333 QT
44.496 -4.365 44.496 -4.411 QT
44.496 -4.458 44.519 -4.482 QT
44.543 -4.505 44.59 -4.505 QT
44.683 -4.505 L
44.699 -4.505 44.73 -4.49 QT
45.449 -3.927 45.926 -3.115 QT
46.402 -2.302 46.621 -1.38 QT
46.84 -0.458 46.84 0.495 QT
46.84 1.198 46.722 1.885 QT
46.605 2.573 46.347 3.237 QT
46.09 3.901 45.683 4.471 QT
45.277 5.042 44.73 5.479 QT
44.699 5.495 44.683 5.495 QT
44.59 5.495 L
cp
f
GR
GS
[0.75 0 0 0.75 0 0.25] CT
1 0 0 RC
1 LJ
0.667 LW
N
133 28.62 M
173.002 28.62 L
S
GR
GS
[0.75 0 0 0.75 132.00182 32.03477] CT
N
/f212180655{0.469 2.995 M
0.375 2.995 0.375 2.87 QT
0.375 2.839 0.391 2.776 QT
0.406 2.714 0.43 2.675 QT
0.453 2.635 0.5 2.635 QT
1.109 2.635 1.344 2.573 QT
1.484 2.526 1.531 2.307 QT
2.906 -3.193 L
2.938 -3.286 2.938 -3.318 QT
2.938 -3.427 2.813 -3.443 QT
2.625 -3.49 2.094 -3.49 QT
2 -3.49 2 -3.615 QT
2 -3.646 2.016 -3.708 QT
2.031 -3.771 2.055 -3.802 QT
2.078 -3.833 2.125 -3.833 QT
7.547 -3.833 L
7.641 -3.833 7.641 -3.708 QT
7.406 -1.63 L
7.406 -1.615 7.367 -1.583 QT
7.328 -1.552 7.297 -1.552 QT
7.219 -1.552 L
7.109 -1.552 7.109 -1.677 QT
7.172 -2.161 7.172 -2.396 QT
7.172 -2.802 7.031 -3.021 QT
6.891 -3.24 6.664 -3.341 QT
6.438 -3.443 6.164 -3.466 QT
5.891 -3.49 5.438 -3.49 QT
4.297 -3.49 L
4.031 -3.49 3.945 -3.443 QT
3.859 -3.396 3.781 -3.146 QT
3.172 -0.724 L
3.953 -0.724 L
4.469 -0.724 4.727 -0.794 QT
4.984 -0.865 5.133 -1.091 QT
5.281 -1.318 5.406 -1.802 QT
5.422 -1.833 5.445 -1.865 QT
5.469 -1.896 5.516 -1.896 QT
5.594 -1.896 L
5.703 -1.896 5.703 -1.771 QT
5.078 0.698 L
5.063 0.792 4.984 0.792 QT
4.891 0.792 L
4.797 0.792 4.797 0.667 QT
4.891 0.26 4.891 0.073 QT
4.891 -0.224 4.625 -0.302 QT
4.359 -0.38 3.922 -0.38 QT
3.094 -0.38 L
2.406 2.339 L
2.375 2.464 2.375 2.557 QT
2.375 2.635 2.703 2.635 QT
3.922 2.635 L
4.641 2.635 5.094 2.526 QT
5.547 2.417 5.844 2.175 QT
6.141 1.932 6.352 1.55 QT
6.563 1.167 6.875 0.432 QT
6.891 0.37 6.953 0.37 QT
7.047 0.37 L
7.094 0.37 7.125 0.409 QT
7.156 0.448 7.156 0.479 QT
7.156 0.51 7.141 0.526 QT
6.109 2.932 L
6.094 2.995 6.031 2.995 QT
0.469 2.995 L
cp}def
f212180655
f
GR
GS
[0.75 0 0 0.75 132.00182 32.03477] CT
N
/f-338170414{8.655 4.603 M
8.342 4.603 8.147 4.369 QT
7.951 4.134 7.881 3.806 QT
7.811 3.478 7.811 3.165 QT
7.811 3.15 L
7.811 2.806 7.873 2.431 QT
7.936 2.056 8.069 1.681 QT
8.201 1.306 8.342 1.009 QT
8.451 0.806 8.608 0.556 QT
8.764 0.306 8.967 0.079 QT
9.17 -0.147 9.405 -0.28 QT
9.639 -0.413 9.873 -0.413 QT
9.873 -0.413 L
10.123 -0.413 10.295 -0.272 QT
10.467 -0.131 10.561 0.087 QT
10.655 0.306 10.694 0.556 QT
10.733 0.806 10.733 1.025 QT
10.733 1.556 10.584 2.111 QT
10.436 2.665 10.186 3.181 QT
10.092 3.369 9.92 3.634 QT
9.748 3.9 9.561 4.111 QT
9.373 4.322 9.139 4.462 QT
8.905 4.603 8.67 4.603 QT
8.655 4.603 L
cp
8.67 4.415 M
8.905 4.415 9.116 4.165 QT
9.326 3.915 9.491 3.564 QT
9.655 3.212 9.772 2.845 QT
9.889 2.478 9.951 2.212 QT
8.53 2.212 L
8.42 2.65 8.358 2.97 QT
8.295 3.29 8.295 3.603 QT
8.295 4.415 8.67 4.415 QT
cp
8.576 1.962 M
10.014 1.962 L
10.092 1.665 10.139 1.454 QT
10.186 1.244 10.209 1.017 QT
10.233 0.79 10.233 0.587 QT
10.233 -0.225 9.873 -0.225 QT
9.42 -0.225 9.1 0.486 QT
8.78 1.197 8.576 1.962 QT
cp}def
f-338170414
f
GR
GS
[0.75 0 0 0.75 132.00182 32.03477] CT
N
/f375538282{11.564 3.587 M
11.486 3.587 11.47 3.415 QT
11.47 3.369 L
11.47 2.837 11.798 2.392 QT
12.127 1.947 12.642 1.947 QT
12.955 1.947 13.22 2.111 QT
13.486 2.275 13.838 2.595 QT
14.189 2.915 14.423 3.056 QT
14.658 3.197 14.97 3.197 QT
15.236 3.197 15.455 3.048 QT
15.673 2.9 15.798 2.65 QT
15.923 2.4 15.923 2.134 QT
15.955 1.947 16.033 1.947 QT
16.111 1.947 16.127 2.134 QT
16.127 2.165 L
16.127 2.509 15.986 2.845 QT
15.845 3.181 15.58 3.384 QT
15.314 3.587 14.97 3.587 QT
14.642 3.587 14.392 3.439 QT
14.142 3.29 13.791 2.978 QT
13.439 2.665 13.189 2.509 QT
12.939 2.353 12.642 2.353 QT
12.361 2.353 12.142 2.501 QT
11.923 2.65 11.798 2.9 QT
11.673 3.15 11.673 3.415 QT
11.642 3.587 11.564 3.587 QT
cp}def
f375538282
f
GR
GS
[0.75 0 0 0.75 132.00182 32.03477] CT
N
/f-2022789954{16.821 5.837 M
16.821 5.806 16.836 5.79 QT
17.524 2.994 L
17.633 2.619 17.875 2.259 QT
18.117 1.9 18.453 1.665 QT
18.789 1.431 19.18 1.431 QT
19.477 1.431 19.703 1.587 QT
19.93 1.744 20.047 2.001 QT
20.164 2.259 20.164 2.572 QT
20.164 2.915 20.024 3.275 QT
19.883 3.634 19.641 3.939 QT
19.399 4.244 19.078 4.423 QT
18.758 4.603 18.414 4.603 QT
18.211 4.603 18.024 4.478 QT
17.836 4.353 17.742 4.165 QT
17.321 5.806 L
17.305 5.915 17.227 5.978 QT
17.149 6.04 17.039 6.04 QT
16.961 6.04 16.891 5.986 QT
16.821 5.931 16.821 5.837 QT
cp
18.43 4.415 M
18.789 4.415 19.071 4.033 QT
19.352 3.65 19.492 3.142 QT
19.633 2.634 19.633 2.275 QT
19.633 2.009 19.516 1.814 QT
19.399 1.619 19.164 1.619 QT
18.852 1.619 18.617 1.845 QT
18.383 2.072 18.25 2.384 QT
18.117 2.697 18.024 3.04 QT
17.836 3.822 L
17.867 4.072 18.024 4.244 QT
18.18 4.415 18.43 4.415 QT
cp}def
f-2022789954
f
GR
GS
[0.75 0 0 0.75 132.00182 32.03477] CT
N
/f383127407{24.563 -4.959 M
24.375 -5.177 L
25.719 -6.521 L
27.063 -5.177 L
26.859 -4.959 L
25.719 -5.959 L
24.563 -4.959 L
cp}def
f383127407
f
GR
GS
[0.75 0 0 0.75 132.00182 32.03477] CT
N
/f-1487151648{21.21 3.214 M
21.147 3.214 21.147 3.151 QT
21.147 3.104 21.178 3.057 QT
21.256 2.932 21.397 2.792 QT
21.538 2.651 21.6 2.557 QT
21.866 2.198 22.006 1.917 QT
22.256 1.385 22.444 0.698 QT
22.725 -0.38 22.944 -1.06 QT
23.163 -1.74 23.522 -2.349 QT
23.803 -2.818 24.217 -3.208 QT
24.631 -3.599 25.139 -3.825 QT
25.647 -4.052 26.178 -4.052 QT
26.241 -4.052 L
26.491 -4.052 26.67 -3.927 QT
26.85 -3.802 26.936 -3.583 QT
27.022 -3.365 27.022 -3.115 QT
27.022 -2.74 26.897 -2.583 QT
26.553 -2.208 26.085 -2.146 QT
26.022 -2.146 L
25.96 -2.146 25.96 -2.208 QT
25.96 -2.224 25.991 -2.365 QT
26.022 -2.505 26.022 -2.599 QT
26.022 -2.927 25.858 -3.169 QT
25.694 -3.411 25.381 -3.411 QT
25.006 -3.411 25.006 -3.349 QT
24.725 -3.146 24.475 -2.708 QT
24.225 -2.271 24.038 -1.755 QT
23.85 -1.24 23.702 -0.716 QT
23.553 -0.193 23.444 0.26 QT
23.319 0.745 23.131 1.198 QT
22.944 1.651 22.678 2.057 QT
22.788 2.01 22.96 2.01 QT
23.022 2.01 L
23.381 2.01 23.725 2.081 QT
24.069 2.151 24.553 2.292 QT
25.038 2.432 25.358 2.495 QT
25.678 2.557 26.038 2.557 QT
26.147 2.557 26.21 2.464 QT
26.272 2.37 26.342 2.198 QT
26.413 2.026 26.46 1.964 QT
26.6 1.792 26.827 1.675 QT
27.053 1.557 27.272 1.526 QT
27.319 1.526 L
27.35 1.526 27.374 1.542 QT
27.397 1.557 27.397 1.589 QT
27.397 1.589 27.381 1.62 QT
27.288 2.01 26.928 2.393 QT
26.569 2.776 26.108 2.995 QT
25.647 3.214 25.256 3.214 QT
25.194 3.214 L
24.85 3.214 24.514 3.151 QT
24.178 3.089 23.702 2.948 QT
23.225 2.807 22.874 2.737 QT
22.522 2.667 22.178 2.667 QT
21.741 3.151 21.272 3.214 QT
21.21 3.214 L
cp}def
f-1487151648
f
GR
GS
[0.75 0 0 0.75 132.00182 32.03477] CT
N
/f493155563{28.198 4.525 M
28.135 4.525 28.135 4.431 QT
28.135 4.415 28.143 4.376 QT
28.151 4.337 28.174 4.306 QT
28.198 4.275 28.214 4.275 QT
28.885 4.275 28.995 3.853 QT
29.948 0.025 L
29.76 -0.006 29.339 -0.006 QT
29.26 -0.006 29.26 -0.1 QT
29.26 -0.116 29.276 -0.163 QT
29.292 -0.21 29.307 -0.233 QT
29.323 -0.256 29.354 -0.256 QT
30.557 -0.256 L
30.62 -0.256 30.635 -0.21 QT
32.182 3.494 L
32.964 0.384 L
32.979 0.306 32.979 0.29 QT
32.979 -0.006 32.432 -0.006 QT
32.37 -0.006 32.37 -0.1 QT
32.385 -0.194 32.401 -0.225 QT
32.417 -0.256 32.479 -0.256 QT
33.979 -0.256 L
34.057 -0.256 34.057 -0.163 QT
34.042 -0.147 34.034 -0.108 QT
34.026 -0.069 34.01 -0.038 QT
33.995 -0.006 33.964 -0.006 QT
33.292 -0.006 33.182 0.415 QT
32.182 4.462 L
32.151 4.525 32.104 4.525 QT
32.026 4.525 L
31.979 4.525 31.964 4.478 QT
30.167 0.244 L
30.167 0.197 L
30.151 0.181 30.151 0.181 QT
29.214 3.884 L
29.214 3.9 29.214 3.923 QT
29.214 3.947 29.198 3.978 QT
29.198 4.165 29.354 4.22 QT
29.51 4.275 29.745 4.275 QT
29.807 4.275 29.807 4.369 QT
29.792 4.462 29.776 4.494 QT
29.76 4.525 29.698 4.525 QT
28.198 4.525 L
cp}def
f493155563
f
GR
GS
[0.75 0 0 0.75 132.00182 32.03477] CT
N
/f2092420573{37.989 5.479 M
37.442 5.042 37.036 4.471 QT
36.629 3.901 36.372 3.253 QT
36.114 2.604 35.989 1.901 QT
35.864 1.198 35.864 0.495 QT
35.864 -0.224 35.989 -0.927 QT
36.114 -1.63 36.379 -2.279 QT
36.645 -2.927 37.051 -3.497 QT
37.457 -4.068 37.989 -4.49 QT
37.989 -4.505 38.051 -4.505 QT
38.145 -4.505 L
38.161 -4.505 38.192 -4.482 QT
38.223 -4.458 38.223 -4.411 QT
38.223 -4.38 38.192 -4.349 QT
37.707 -3.88 37.379 -3.333 QT
37.051 -2.786 36.856 -2.169 QT
36.661 -1.552 36.575 -0.888 QT
36.489 -0.224 36.489 0.495 QT
36.489 3.667 38.192 5.323 QT
38.223 5.354 38.223 5.401 QT
38.223 5.432 38.192 5.464 QT
38.161 5.495 38.145 5.495 QT
38.051 5.495 L
37.989 5.495 37.989 5.479 QT
cp}def
f2092420573
f
GR
GS
[0.75 0 0 0.75 132.00182 32.03477] CT
N
/f1786548408{40.471 3.104 M
40.018 3.104 39.744 2.776 QT
39.471 2.448 39.369 1.979 QT
39.268 1.51 39.268 1.042 QT
39.268 1.042 L
39.268 0.542 39.362 0.003 QT
39.455 -0.536 39.635 -1.068 QT
39.815 -1.599 40.018 -2.021 QT
40.174 -2.318 40.401 -2.677 QT
40.627 -3.036 40.916 -3.357 QT
41.205 -3.677 41.534 -3.865 QT
41.862 -4.052 42.205 -4.052 QT
42.205 -4.052 L
42.58 -4.052 42.815 -3.857 QT
43.049 -3.661 43.19 -3.349 QT
43.33 -3.036 43.385 -2.677 QT
43.44 -2.318 43.44 -1.99 QT
43.44 -1.24 43.229 -0.45 QT
43.018 0.339 42.659 1.073 QT
42.518 1.354 42.276 1.729 QT
42.034 2.104 41.768 2.401 QT
41.502 2.698 41.166 2.901 QT
40.83 3.104 40.487 3.104 QT
40.471 3.104 L
cp
40.487 2.839 M
40.83 2.839 41.135 2.487 QT
41.44 2.135 41.666 1.628 QT
41.893 1.12 42.065 0.589 QT
42.237 0.057 42.33 -0.302 QT
40.284 -0.302 L
40.127 0.323 40.041 0.776 QT
39.955 1.229 39.955 1.682 QT
39.955 2.839 40.487 2.839 QT
cp
40.362 -0.661 M
42.409 -0.661 L
42.518 -1.099 42.58 -1.396 QT
42.643 -1.693 42.69 -2.021 QT
42.737 -2.349 42.737 -2.63 QT
42.737 -3.802 42.205 -3.802 QT
41.565 -3.802 41.104 -2.779 QT
40.643 -1.755 40.362 -0.661 QT
cp}def
f1786548408
f
GR
GS
[0.75 0 0 0.75 132.00182 32.03477] CT
N
/f1503692038{44.59 5.495 M
44.496 5.495 44.496 5.401 QT
44.496 5.37 44.511 5.339 QT
46.23 3.667 46.23 0.495 QT
46.23 -2.677 44.527 -4.333 QT
44.496 -4.365 44.496 -4.411 QT
44.496 -4.458 44.519 -4.482 QT
44.543 -4.505 44.59 -4.505 QT
44.683 -4.505 L
44.699 -4.505 44.73 -4.49 QT
45.449 -3.927 45.926 -3.115 QT
46.402 -2.302 46.621 -1.38 QT
46.84 -0.458 46.84 0.495 QT
46.84 1.198 46.722 1.885 QT
46.605 2.573 46.347 3.237 QT
46.09 3.901 45.683 4.471 QT
45.277 5.042 44.73 5.479 QT
44.699 5.495 44.683 5.495 QT
44.59 5.495 L
cp}def
f1503692038
f
GR
GS
[0.75 0 0 0.75 132.00182 32.03477] CT
N
/f486826755{50.917 0.698 M
50.839 0.698 50.784 0.635 QT
50.729 0.573 50.729 0.495 QT
50.729 0.417 50.784 0.354 QT
50.839 0.292 50.917 0.292 QT
53.854 0.292 L
53.854 -2.661 L
53.854 -2.74 53.917 -2.786 QT
53.979 -2.833 54.057 -2.833 QT
54.135 -2.833 54.198 -2.786 QT
54.26 -2.74 54.26 -2.661 QT
54.26 0.292 L
57.198 0.292 L
57.276 0.292 57.331 0.354 QT
57.385 0.417 57.385 0.495 QT
57.385 0.573 57.331 0.635 QT
57.276 0.698 57.198 0.698 QT
54.26 0.698 L
54.26 3.651 L
54.26 3.729 54.198 3.776 QT
54.135 3.823 54.057 3.823 QT
53.979 3.823 53.917 3.776 QT
53.854 3.729 53.854 3.651 QT
53.854 0.698 L
50.917 0.698 L
cp}def
f486826755
f
GR
GS
[0.75 0 0 0.75 132.00182 32.03477] CT
N
/f-876708591{61.132 2.823 M
61.132 2.76 61.148 2.729 QT
61.898 -0.255 L
61.976 -0.521 61.976 -0.74 QT
61.976 -1.161 61.679 -1.161 QT
61.367 -1.161 61.21 -0.786 QT
61.054 -0.411 60.913 0.151 QT
60.913 0.182 60.89 0.198 QT
60.867 0.214 60.835 0.214 QT
60.726 0.214 L
60.679 0.214 60.656 0.175 QT
60.632 0.135 60.632 0.12 QT
60.742 -0.318 60.843 -0.622 QT
60.945 -0.927 61.156 -1.177 QT
61.367 -1.427 61.679 -1.427 QT
62.038 -1.427 62.296 -1.224 QT
62.554 -1.021 62.617 -0.693 QT
62.867 -1.036 63.195 -1.232 QT
63.523 -1.427 63.913 -1.427 QT
64.226 -1.427 64.468 -1.24 QT
64.71 -1.052 64.71 -0.74 QT
64.71 -0.49 64.554 -0.294 QT
64.398 -0.099 64.132 -0.099 QT
63.96 -0.099 63.851 -0.2 QT
63.742 -0.302 63.742 -0.474 QT
63.742 -0.693 63.906 -0.865 QT
64.07 -1.036 64.273 -1.036 QT
64.117 -1.161 63.882 -1.161 QT
63.46 -1.161 63.14 -0.857 QT
62.82 -0.552 62.57 -0.083 QT
61.851 2.776 L
61.82 2.917 61.703 3.01 QT
61.585 3.104 61.429 3.104 QT
61.32 3.104 61.226 3.026 QT
61.132 2.948 61.132 2.823 QT
cp}def
f-876708591
f
GR
GS
[0.75 0 0 0.75 132.00182 32.03477] CT
N
/f228527818{65.297 4.525 M
65.234 4.525 65.234 4.431 QT
65.234 4.415 65.242 4.376 QT
65.25 4.337 65.273 4.306 QT
65.297 4.275 65.312 4.275 QT
65.984 4.275 66.093 3.853 QT
67.047 0.025 L
66.859 -0.006 66.437 -0.006 QT
66.359 -0.006 66.359 -0.1 QT
66.359 -0.116 66.375 -0.163 QT
66.39 -0.21 66.406 -0.233 QT
66.422 -0.256 66.453 -0.256 QT
67.656 -0.256 L
67.718 -0.256 67.734 -0.21 QT
69.281 3.494 L
70.062 0.384 L
70.078 0.306 70.078 0.29 QT
70.078 -0.006 69.531 -0.006 QT
69.468 -0.006 69.468 -0.1 QT
69.484 -0.194 69.5 -0.225 QT
69.515 -0.256 69.578 -0.256 QT
71.078 -0.256 L
71.156 -0.256 71.156 -0.163 QT
71.14 -0.147 71.132 -0.108 QT
71.125 -0.069 71.109 -0.038 QT
71.093 -0.006 71.062 -0.006 QT
70.39 -0.006 70.281 0.415 QT
69.281 4.462 L
69.25 4.525 69.203 4.525 QT
69.125 4.525 L
69.078 4.525 69.062 4.478 QT
67.265 0.244 L
67.265 0.197 L
67.25 0.181 67.25 0.181 QT
66.312 3.884 L
66.312 3.9 66.312 3.923 QT
66.312 3.947 66.297 3.978 QT
66.297 4.165 66.453 4.22 QT
66.609 4.275 66.843 4.275 QT
66.906 4.275 66.906 4.369 QT
66.89 4.462 66.875 4.494 QT
66.859 4.525 66.797 4.525 QT
65.297 4.525 L
cp}def
f228527818
f
GR
GS
[0.75 0 0 0.75 0 0.25] CT
0 0 1 RC
[10 6] 0 setdash
2 LJ
0.667 LW
N
133 42.38 M
173.002 42.38 L
S
GR
GS
[0.75 0 0 0.75 0 0.25] CT
0.149 GC
10.0 ML
0.667 LW
N
129 51 M
129 20 L
252 20 L
252 51 L
cp
S
GR
%%Trailer
%%Pages: 1
%%EOF
